5/simulation/qsim/project5.msim.vcd
$comment
	File created using the following command:
		vcd file project5.msim.vcd -direction
$end
$date
	Sun Nov 12 21:51:42 2017
$end
$version
	ModelSim Version 10.1d
$end
$timescale
	1ps
$end
$scope module project5_vlg_vec_tst $end
$var reg 1 ! SW $end
$var reg 1 " clk $end
$var reg 1 # reset $end
$var wire 1 $ sel [7] $end
$var wire 1 % sel [6] $end
$var wire 1 & sel [5] $end
$var wire 1 ' sel [4] $end
$var wire 1 ( sel [3] $end
$var wire 1 ) sel [2] $end
$var wire 1 * sel [1] $end
$var wire 1 + sel [0] $end
$var wire 1 , sampler $end
$scope module i1 $end
$var wire 1 - gnd $end
$var wire 1 . vcc $end
$var wire 1 / unknown $end
$var tri1 1 0 devclrn $end
$var tri1 1 1 devpor $end
$var tri1 1 2 devoe $end
$var wire 1 3 sel[0]~output_o $end
$var wire 1 4 sel[1]~output_o $end
$var wire 1 5 sel[2]~output_o $end
$var wire 1 6 sel[3]~output_o $end
$var wire 1 7 sel[4]~output_o $end
$var wire 1 8 sel[5]~output_o $end
$var wire 1 9 sel[6]~output_o $end
$var wire 1 : sel[7]~output_o $end
$var wire 1 ; clk~input_o $end
$var wire 1 < SW~input_o $end
$var wire 1 = reset~input_o $end
$var wire 1 > Selector6~0_combout $end
$var wire 1 ? Selector7~0_combout $end
$var wire 1 @ Selector6~1_combout $end
$var wire 1 A sel[1]~reg0_q $end
$var wire 1 B sel~6_combout $end
$var wire 1 C sel~2_combout $end
$var wire 1 D sel~7_combout $end
$var wire 1 E sel[4]~reg0_q $end
$var wire 1 F Selector4~0_combout $end
$var wire 1 G Selector4~1_combout $end
$var wire 1 H sel[3]~reg0_q $end
$var wire 1 I sel~10_combout $end
$var wire 1 J sel~11_combout $end
$var wire 1 K sel[6]~reg0_q $end
$var wire 1 L Selector0~0_combout $end
$var wire 1 M Selector0~1_combout $end
$var wire 1 N sel[7]~reg0_q $end
$var wire 1 O sel~4_combout $end
$var wire 1 P sel~5_combout $end
$var wire 1 Q sel[2]~reg0_q $end
$var wire 1 R sel~1_combout $end
$var wire 1 S sel~8_combout $end
$var wire 1 T sel~9_combout $end
$var wire 1 U sel[5]~reg0_q $end
$var wire 1 V sel~0_combout $end
$var wire 1 W sel~3_combout $end
$var wire 1 X sel[0]~reg0_q $end
$upscope $end
$upscope $end
$enddefinitions $end
#0
$dumpvars
0!
0"
1#
1+
1*
1)
1(
1'
1&
1%
1$
x,
0-
1.
x/
10
11
12
13
14
15
16
17
18
19
1:
0;
0<
1=
1>
1?
0@
0A
1B
1C
0D
0E
1F
0G
0H
1I
0J
0K
0L
0M
0N
1O
0P
0Q
1R
1S
0T
0U
0V
1W
0X
$end
#25000
1"
1;
0,
1X
0R
0>
03
0+
0C
1@
0W
#50000
0"
0;
1,
#75000
1"
1;
0,
0X
1A
1R
1>
1V
0O
0?
13
04
1+
0*
1C
0@
1P
#100000
0"
0;
1,
#125000
1"
1;
0,
1Q
0A
0R
0F
0V
1O
1?
05
14
0)
1*
0C
1G
1W
0P
0W
#150000
0#
0"
0=
0;
1,
1F
0G
#175000
1"
1;
0,
0Q
15
1)
#200000
1#
0"
1=
0;
1,
1R
1C
1W
#225000
1"
1;
0,
1X
0R
0>
03
0+
0C
1@
0W
#250000
0"
0;
1,
#275000
1"
1;
0,
0X
1A
1R
1>
1V
0O
0?
13
04
1+
0*
1C
0@
1P
#300000
0"
0;
1,
#325000
1"
1;
0,
1Q
0A
0R
0F
0V
1O
1?
05
14
0)
1*
0C
1G
1W
0P
0W
#350000
0"
0;
1,
#375000
1"
1;
0,
0Q
1H
1R
1F
1V
0B
0?
15
06
1)
0(
1C
0G
1D
#400000
0"
0;
1,
#425000
1"
1;
0,
0H
1E
0V
1B
1?
0S
0C
16
07
1(
0'
0D
1T
#450000
0"
0;
1,
#475000
1"
1;
0,
1U
0E
0I
0?
1S
1C
08
17
0&
1'
1J
0T
#500000
0"
0;
1,
#525000
1"
1;
0,
0U
1K
1W
1I
1?
1L
0C
18
09
1&
0%
0J
1M
0W
#550000
0"
0;
1,
#575000
1"
1;
0,
1N
0K
0?
0L
1C
0:
19
0$
1%
0M
1W
#600000
0"
0;
1,
#625000
1"
1;
0,
1X
0N
0R
0>
1?
03
1:
0+
1$
0C
1@
0W
#650000
0"
0;
1,
#675000
1"
1;
0,
0X
1A
1R
1>
1V
0O
0?
13
04
1+
0*
1C
0@
1P
#700000
0"
0;
1,
#725000
1"
1;
0,
1Q
0A
0R
0F
0V
1O
1?
05
14
0)
1*
0C
1G
1W
0P
0W
#750000
0"
0;
1,
#775000
1"
1;
0,
0Q
1H
1R
1F
1V
0B
0?
15
06
1)
0(
1C
0G
1D
#800000
0"
0;
1,
#825000
1"
1;
0,
0H
1E
0V
1B
1?
0S
0C
16
07
1(
0'
0D
1T
#850000
0"
0;
1,
#875000
1"
1;
0,
1U
0E
0I
0?
1S
1C
08
17
0&
1'
1J
0T
#900000
0"
0;
1,
#925000
1"
1;
0,
0U
1K
1W
1I
1?
1L
0C
18
09
1&
0%
0J
1M
0W
#950000
0"
0;
1,
#975000
1"
1;
0,
1N
0K
0?
0L
1C
0:
19
0$
1%
0M
1W
#1000000
1!
0"
1<
0;
1,
1V
1L
0I
0W
1J
#1025000
1"
1;
0,
0N
1K
1I
1?
0S
0L
0C
1:
09
1$
0%
0J
1T
#1050000
0"
0;
1,
#1075000
1"
1;
0,
1U
0K
0B
0?
1S
1L
1C
08
19
0&
1%
1D
0T
#1100000
0"
0;
1,
#1125000
1"
1;
0,
0U
1E
1B
1?
0F
0C
18
07
1&
0'
0D
1G
#1150000
0"
0;
1,
#1175000
1"
1;
0,
1H
0E
0O
0?
1M
1F
1C
06
17
0(
1'
1P
0M
0G
#1200000
0#
0"
0=
0;
1,
0R
0L
0C
0P
#1225000
1"
1;
0,
0H
1O
1?
16
1(
#1250000
0"
0;
1,
#1275000
1"
1;
0,
#1300000
0"
0;
1,
#1325000
1"
1;
0,
#1350000
1#
0"
1=
0;
1,
1R
1L
1C
1M
#1375000
1"
1;
0,
1N
0I
0?
0:
0$
1J
0M
#1400000
0"
0;
1,
#1425000
1"
1;
0,
0N
1K
1I
1?
0S
0L
0C
1:
09
1$
0%
0J
1T
#1450000
0"
0;
1,
#1475000
1"
1;
0,
1U
0K
0B
0?
1S
1L
1C
08
19
0&
1%
1D
0T
#1500000
0"
0;
1,
#1525000
1"
1;
0,
0U
1E
1B
1?
0F
0C
18
07
1&
0'
0D
1G
#1550000
0"
0;
1,
#1575000
1"
1;
0,
1H
0E
0O
0?
1M
1F
1C
06
17
0(
1'
1P
0M
0G
#1600000
0"
0;
1,
#1625000
1"
1;
0,
1Q
0H
0R
0>
1O
1?
05
16
0)
1(
0C
1@
0P
#1650000
0"
0;
1,
#1675000
1"
1;
0,
0Q
1A
1R
1M
1>
0V
0?
15
04
1)
0*
1C
0@
0M
1W
#1700000
0"
0;
1,
#1725000
1"
1;
0,
1X
0A
0R
1V
1?
03
14
0+
1*
0C
0W
1M
#1750000
0"
0;
1,
#1775000
1"
1;
0,
0X
1N
1R
0I
0?
13
0:
1+
0$
1C
0M
1J
#1800000
0"
0;
1,
#1825000
1"
1;
0,
0N
1K
1I
1?
0S
0L
0C
1:
09
1$
0%
0J
1T
#1850000
0"
0;
1,
#1875000
1"
1;
0,
1U
0K
0B
0?
1S
1L
1C
08
19
0&
1%
1D
0T
#1900000
0"
0;
1,
#1925000
1"
1;
0,
0U
1E
1B
1?
0F
0C
18
07
1&
0'
0D
1G
#1950000
0"
0;
1,
#1975000
1"
1;
0,
1H
0E
0O
0?
1M
1F
1C
06
17
0(
1'
1P
0M
0G
