9/simulation/qsim/project9.msim.vcd
$comment
	File created using the following command:
		vcd file project9.msim.vcd -direction
$end
$date
	Tue Dec 26 11:29:43 2017
$end
$version
	ModelSim Version 10.1d
$end
$timescale
	1ps
$end
$scope module keyboard_shake_vlg_vec_tst $end
$var reg 1 ! SW_IN $end
$var reg 1 " clk $end
$var wire 1 # SW_OUT $end
$var wire 1 $ sampler $end
$scope module i1 $end
$var wire 1 % gnd $end
$var wire 1 & vcc $end
$var wire 1 ' unknown $end
$var tri1 1 ( devclrn $end
$var tri1 1 ) devpor $end
$var tri1 1 * devoe $end
$var wire 1 + SW_OUT~output_o $end
$var wire 1 , clk~input_o $end
$var wire 1 - clk~inputclkctrl_outclk $end
$var wire 1 . SW_IN~input_o $end
$var wire 1 / state.S0~0_combout $end
$var wire 1 0 state.S0~q $end
$var wire 1 1 state~11_combout $end
$var wire 1 2 state.S1~q $end
$var wire 1 3 state~10_combout $end
$var wire 1 4 state.S3~q $end
$upscope $end
$upscope $end
$enddefinitions $end
#0
$dumpvars
1!
0"
1#
x$
0%
1&
x'
1(
1)
1*
1+
0,
0-
1.
0/
00
01
02
03
04
$end
#20000
1"
1,
1-
0$
#40000
0"
0,
0-
1$
#50000
0!
0.
0$
11
1/
#60000
1"
1,
1-
1$
12
10
01
#70000
1!
1.
0$
0/
#80000
0"
0,
0-
1$
#90000
0!
0.
0$
1/
#100000
1"
1,
1-
1$
02
13
#120000
0"
0,
0-
0$
#130000
1!
1.
1$
03
0/
#140000
1"
1,
1-
0$
00
#150000
0!
0.
1$
11
1/
#160000
0"
1!
0,
1.
0-
0$
01
0/
#180000
1"
1,
1-
1$
#200000
0"
0,
0-
0$
#220000
0!
1"
0.
1,
1-
1$
11
1/
#240000
0"
0,
0-
0$
#260000
1"
1,
1-
1$
12
10
01
#280000
0"
0,
0-
0$
#300000
1"
1,
1-
1$
02
13
#320000
1!
0"
1.
0,
0-
0$
03
0/
#340000
1"
1,
1-
1$
00
#360000
0"
0,
0-
0$
#380000
1"
1,
1-
1$
#400000
0!
0"
0.
0,
0-
0$
11
1/
#420000
1"
1,
1-
1$
12
10
01
#440000
0"
0,
0-
0$
#460000
1"
1,
1-
1$
02
13
#480000
0"
0,
0-
0$
#500000
1"
1,
1-
1$
14
0+
0#
#520000
0"
0,
0-
0$
#540000
1"
1,
1-
1$
#560000
0"
0,
0-
0$
#580000
1"
1,
1-
1$
#600000
0"
0,
0-
0$
#620000
1"
1,
1-
1$
#640000
0"
0,
0-
0$
#660000
1"
1,
1-
1$
#680000
0"
0,
0-
0$
#700000
1"
1,
1-
1$
#720000
0"
0,
0-
0$
#740000
1"
1,
1-
1$
#760000
1!
0"
1.
0,
0-
0$
03
0/
#780000
1"
1,
1-
1$
04
00
1+
1#
#800000
0"
0,
0-
0$
#820000
1"
1,
1-
1$
#840000
0"
0,
0-
0$
#860000
1"
1,
1-
1$
#880000
0"
0,
0-
0$
#900000
1"
1,
1-
1$
#920000
0"
0,
0-
0$
#940000
1"
1,
1-
1$
#960000
0"
0,
0-
0$
#980000
1"
1,
1-
1$
