10/simulation/qsim/chronograph.msim.vcd
$comment
	File created using the following command:
		vcd file chronograph.msim.vcd -direction
$end
$date
	Wed Dec 06 21:49:39 2017
$end
$version
	ModelSim Version 10.1d
$end
$timescale
	1ps
$end
$scope module dynamic_scanning_vlg_vec_tst $end
$var reg 1 ! clk_DS $end
$var wire 1 " ds1 $end
$var wire 1 # ds2 $end
$var wire 1 $ ds3 $end
$var wire 1 % ds4 $end
$var wire 1 & ds5 $end
$var wire 1 ' ds6 $end
$var wire 1 ( ds7 $end
$var wire 1 ) ds8 $end
$var wire 1 * sel_DS [2] $end
$var wire 1 + sel_DS [1] $end
$var wire 1 , sel_DS [0] $end
$var wire 1 - sampler $end
$scope module i1 $end
$var wire 1 . gnd $end
$var wire 1 / vcc $end
$var wire 1 0 unknown $end
$var tri1 1 1 devclrn $end
$var tri1 1 2 devpor $end
$var tri1 1 3 devoe $end
$var wire 1 4 clk_DS~input_o $end
$var wire 1 5 clk_DS~inputclkctrl_outclk $end
$var wire 1 6 ds1~output_o $end
$var wire 1 7 ds2~output_o $end
$var wire 1 8 ds3~output_o $end
$var wire 1 9 ds4~output_o $end
$var wire 1 : ds5~output_o $end
$var wire 1 ; ds6~output_o $end
$var wire 1 < ds7~output_o $end
$var wire 1 = ds8~output_o $end
$var wire 1 > sel_DS[2]~output_o $end
$var wire 1 ? sel_DS[1]~output_o $end
$var wire 1 @ sel_DS[0]~output_o $end
$var wire 1 A inst|6~0_combout $end
$var wire 1 B inst|7~0_combout $end
$var wire 1 C inst|7~q $end
$var wire 1 D inst2|15~7_combout $end
$var wire 1 E inst|9~q $end
$var wire 1 F inst|6~q $end
$var wire 1 G inst|8~0_combout $end
$var wire 1 H inst|8~q $end
$var wire 1 I inst2|15~0_combout $end
$var wire 1 J inst2|15~1_combout $end
$var wire 1 K inst2|15~2_combout $end
$var wire 1 L inst2|15~3_combout $end
$var wire 1 M inst2|15~4_combout $end
$var wire 1 N inst2|15~5_combout $end
$var wire 1 O inst2|15~6_combout $end
$upscope $end
$upscope $end
$enddefinitions $end
#0
$dumpvars
0!
0"
1#
1$
1%
1&
1'
1(
1)
0,
0+
0*
x-
0.
1/
x0
11
12
13
04
05
06
17
18
19
1:
1;
1<
1=
0>
0?
0@
1A
0B
0C
0D
0E
0F
0G
0H
1I
0J
0K
0L
0M
0N
0O
$end
#50000
1!
14
15
0-
1F
1J
0I
1B
0A
1@
1,
07
16
0#
1"
#100000
0!
04
05
1-
#150000
1!
14
15
0-
0F
1C
1K
0J
1A
0@
1?
0,
1+
08
17
0$
1#
#200000
0!
04
05
1-
#250000
1!
14
15
0-
1F
1L
0K
1G
0B
0A
1@
1,
09
18
0%
1$
#300000
0!
04
05
1-
#350000
1!
14
15
0-
1H
0F
0C
1M
0L
1A
1>
0@
0?
1*
0,
0+
0:
19
0&
1%
#400000
0!
04
05
1-
#450000
1!
14
15
0-
1F
1N
0M
1B
0A
1@
1,
0;
1:
0'
1&
#500000
0!
04
05
1-
#550000
1!
14
15
0-
0F
1C
1O
0N
1A
0@
1?
0,
1+
0<
1;
0(
1'
#600000
0!
04
05
1-
#650000
1!
14
15
0-
1F
0O
0G
1D
0B
0A
1@
1,
1<
0=
1(
0)
#700000
0!
04
05
1-
#750000
1!
14
15
0-
1E
0H
0F
0C
1I
0D
1A
0>
0@
0?
0*
0,
0+
06
1=
0"
1)
0E
#800000
0!
04
05
1-
#850000
1!
14
15
0-
1F
1J
0I
1B
0A
1@
1,
07
16
0#
1"
#900000
0!
04
05
1-
#950000
1!
14
15
0-
0F
1C
1K
0J
1A
0@
1?
0,
1+
08
17
0$
1#
#1000000
0!
04
05
1-
#1050000
1!
14
15
0-
1F
1L
0K
1G
0B
0A
1@
1,
09
18
0%
1$
#1100000
0!
04
05
1-
#1150000
1!
14
15
0-
1H
0F
0C
1M
0L
1A
1>
0@
0?
1*
0,
0+
0:
19
0&
1%
#1200000
0!
04
05
1-
#1250000
1!
14
15
0-
1F
1N
0M
1B
0A
1@
1,
0;
1:
0'
1&
#1300000
0!
04
05
1-
#1350000
1!
14
15
0-
0F
1C
1O
0N
1A
0@
1?
0,
1+
0<
1;
0(
1'
#1400000
0!
04
05
1-
#1450000
1!
14
15
0-
1F
0O
0G
1D
0B
0A
1@
1,
1<
0=
1(
0)
#1500000
0!
04
05
1-
#1550000
1!
14
15
0-
1E
0H
0F
0C
1I
0D
1A
0>
0@
0?
0*
0,
0+
06
1=
0"
1)
0E
#1600000
0!
04
05
1-
#1650000
1!
14
15
0-
1F
1J
0I
1B
0A
1@
1,
07
16
0#
1"
#1700000
0!
04
05
1-
#1750000
1!
14
15
0-
0F
1C
1K
0J
1A
0@
1?
0,
1+
08
17
0$
1#
#1800000
0!
04
05
1-
#1850000
1!
14
15
0-
1F
1L
0K
1G
0B
0A
1@
1,
09
18
0%
1$
#1900000
0!
04
05
1-
#1950000
1!
14
15
0-
1H
0F
0C
1M
0L
1A
1>
0@
0?
1*
0,
0+
0:
19
0&
1%
