3/simulation/qsim/project3.msim.vcd
$comment
	File created using the following command:
		vcd file project3.msim.vcd -direction
$end
$date
	Wed Nov 01 15:32:48 2017
$end
$version
	ModelSim Version 10.1d
$end
$timescale
	1ps
$end
$scope module SEL6_vlg_vec_tst $end
$var reg 1 ! EN $end
$var reg 4 " in5 [3:0] $end
$var reg 4 # in6 [3:0] $end
$var reg 3 $ sel [2:0] $end
$var wire 1 % out [3] $end
$var wire 1 & out [2] $end
$var wire 1 ' out [1] $end
$var wire 1 ( out [0] $end
$var wire 1 ) sampler $end
$scope module i1 $end
$var wire 1 * gnd $end
$var wire 1 + vcc $end
$var wire 1 , unknown $end
$var tri1 1 - devclrn $end
$var tri1 1 . devpor $end
$var tri1 1 / devoe $end
$var wire 1 0 out~2_combout $end
$var wire 1 1 out[0]~output_o $end
$var wire 1 2 out[1]~output_o $end
$var wire 1 3 out[2]~output_o $end
$var wire 1 4 out[3]~output_o $end
$var wire 1 5 in5[0]~input_o $end
$var wire 1 6 EN~input_o $end
$var wire 1 7 sel[0]~input_o $end
$var wire 1 8 in6[0]~input_o $end
$var wire 1 9 sel[1]~input_o $end
$var wire 1 : out~0_combout $end
$var wire 1 ; out~1_combout $end
$var wire 1 < in6[1]~input_o $end
$var wire 1 = in5[1]~input_o $end
$var wire 1 > out~3_combout $end
$var wire 1 ? sel[2]~input_o $end
$var wire 1 @ out~4_combout $end
$var wire 1 A out~5_combout $end
$var wire 1 B in5[2]~input_o $end
$var wire 1 C in6[2]~input_o $end
$var wire 1 D out~6_combout $end
$var wire 1 E out~7_combout $end
$var wire 1 F in5[3]~input_o $end
$var wire 1 G in6[3]~input_o $end
$var wire 1 H out~8_combout $end
$var wire 1 I out~9_combout $end
$upscope $end
$upscope $end
$enddefinitions $end
#0
$dumpvars
1!
b0 "
b111 #
b0 $
1(
0'
0&
0%
x)
0*
1+
x,
1-
1.
1/
10
11
02
03
04
05
16
07
18
09
0:
1;
1<
0=
1>
0?
1@
0A
0B
1C
1D
0E
0F
0G
0H
0I
$end
#125000
b1 $
17
0)
0;
01
0(
#250000
b11 $
b10 $
07
19
1)
1E
1;
13
11
1&
1(
#375000
b11 $
17
0)
0E
1A
0;
03
12
01
0&
1'
0(
#500000
b111 $
b101 $
b100 $
07
09
1?
1)
1:
00
0@
0A
1;
0D
0>
02
11
0'
1(
0;
1E
1A
01
13
12
0(
1&
1'
0E
0A
03
02
0&
0'
#625000
b101 $
17
0)
1D
1>
1;
11
1(
1E
1A
13
12
1&
1'
#750000
b111 $
b110 $
07
19
1)
0D
0>
0:
10
0;
1I
1D
1>
01
14
0(
1%
0E
0A
1;
03
02
11
0&
0'
1(
1E
1A
13
12
1&
1'
#875000
b111 $
17
0)
1:
0;
01
0(
1;
11
1(
#999000
b11 $
b1 $
b0 $
07
09
0?
1)
0:
1@
0;
0I
01
04
0(
0%
1;
0E
0A
11
03
02
1(
0&
0'
