11/simulation/qsim/project11_2.msim.vcd
$comment
	File created using the following command:
		vcd file project11_2.msim.vcd -direction
$end
$date
	Tue Dec 26 10:15:45 2017
$end
$version
	ModelSim Version 10.1d
$end
$timescale
	1ps
$end
$scope module count_B32_vlg_vec_tst $end
$var reg 4 ! Din [3:0] $end
$var reg 1 " F $end
$var wire 1 # cnt [3] $end
$var wire 1 $ cnt [2] $end
$var wire 1 % cnt [1] $end
$var wire 1 & cnt [0] $end
$var wire 1 ' sampler $end
$scope module i1 $end
$var wire 1 ( gnd $end
$var wire 1 ) vcc $end
$var wire 1 * unknown $end
$var tri1 1 + devclrn $end
$var tri1 1 , devpor $end
$var tri1 1 - devoe $end
$var wire 1 . Equal0~0_combout $end
$var wire 1 / Din[1]~input_o $end
$var wire 1 0 Din[2]~input_o $end
$var wire 1 1 Din[3]~input_o $end
$var wire 1 2 cnt[0]~output_o $end
$var wire 1 3 cnt[1]~output_o $end
$var wire 1 4 cnt[2]~output_o $end
$var wire 1 5 cnt[3]~output_o $end
$var wire 1 6 F~input_o $end
$var wire 1 7 F~inputclkctrl_outclk $end
$var wire 1 8 Din[0]~input_o $end
$var wire 1 9 LessThan0~0_combout $end
$var wire 1 : cnt[1]~3_combout $end
$var wire 1 ; cnt[1]~2_combout $end
$var wire 1 < cnt[1]~4_combout $end
$var wire 1 = cnt[1]~reg0_q $end
$var wire 1 > cnt[2]~5_combout $end
$var wire 1 ? cnt[2]~6_combout $end
$var wire 1 @ cnt[2]~7_combout $end
$var wire 1 A cnt[2]~reg0_q $end
$var wire 1 B cnt~8_combout $end
$var wire 1 C cnt~9_combout $end
$var wire 1 D cnt[3]~reg0_q $end
$var wire 1 E cnt~0_combout $end
$var wire 1 F cnt~1_combout $end
$var wire 1 G cnt[0]~reg0_q $end
$upscope $end
$upscope $end
$enddefinitions $end
#0
$dumpvars
b1100 !
0"
0&
0%
0$
0#
x'
0(
1)
x*
1+
1,
1-
0.
0/
10
11
02
03
04
05
06
07
08
09
1:
0;
0<
0=
0>
0?
0@
0A
0B
0C
0D
1E
1F
0G
$end
#25000
1"
16
17
0'
1G
0F
1;
19
12
1&
1<
#50000
b1101 !
0"
18
06
07
1'
#75000
1"
16
17
0'
0G
1=
1F
02
13
0&
1%
#100000
b1111 !
0"
1/
06
07
1'
1.
1@
1>
0;
1?
0<
0@
#125000
1"
16
17
0'
1G
0=
0F
12
03
1&
0%
#150000
b1110 !
0"
08
06
07
1'
0E
#175000
1"
16
17
0'
0G
0>
09
02
0&
0?
#200000
b110 !
b10 !
b0 !
0"
0/
00
01
06
07
1'
0.
1E
1F
#225000
1"
16
17
0'
1G
0F
1;
19
12
1&
1<
#250000
b1 !
0"
18
06
07
1'
#275000
1"
16
17
0'
0G
1=
1F
02
13
0&
1%
#300000
b11 !
b10 !
0"
08
1/
06
07
1'
#325000
1"
16
17
0'
1G
0F
1>
0;
12
1&
1?
0<
1@
#350000
b11 !
0"
18
06
07
1'
#375000
1"
16
17
0'
0G
1A
0=
1F
0>
0?
02
14
03
0&
1$
0%
1?
0@
1@
#400000
b111 !
b101 !
b100 !
0"
08
0/
10
06
07
1'
#425000
1"
16
17
0'
1G
0F
1;
12
1&
1<
#450000
b101 !
0"
18
06
07
1'
#475000
1"
16
17
0'
0G
1=
1F
02
13
0&
1%
#500000
b111 !
b110 !
0"
08
1/
06
07
1'
#525000
1"
16
17
0'
1G
0F
1B
1>
0;
12
1&
1C
0?
0<
0@
#550000
b111 !
0"
18
06
07
1'
#575000
1"
16
17
0'
0G
1D
0A
0=
1F
0B
0>
0E
0:
1?
02
15
04
03
0&
1#
0$
0%
0?
0F
1@
0@
#600000
b1111 !
b1011 !
b1001 !
b1000 !
0"
08
0/
00
11
06
07
1'
#625000
1"
16
17
0'
#650000
b1001 !
0"
18
06
07
1'
#675000
1"
16
17
0'
#700000
b1011 !
b1010 !
0"
08
1/
06
07
1'
#725000
1"
16
17
0'
#750000
b1011 !
0"
18
06
07
1'
#775000
1"
16
17
0'
#800000
b1111 !
b1101 !
b1100 !
0"
08
0/
10
06
07
1'
#825000
1"
16
17
0'
#850000
b1101 !
0"
18
06
07
1'
#875000
1"
16
17
0'
#900000
b1111 !
0"
1/
06
07
1'
1.
1E
0C
1;
1:
1F
1<
1@
#925000
1"
16
17
0'
1G
0D
1A
1=
0F
1B
1>
1?
12
05
14
13
1&
0#
1$
1%
0?
0@
1@
#950000
b1110 !
0"
08
06
07
1'
0E
0@
0;
0<
#975000
1"
16
17
0'
0G
0A
0=
0B
0>
09
1?
02
04
03
0&
0$
0%
0?
