8_2/simulation/qsim/project8.msim.vcd
$comment
	File created using the following command:
		vcd file project8.msim.vcd -direction
$end
$date
	Tue Nov 28 10:52:40 2017
$end
$version
	ModelSim Version 10.1d
$end
$timescale
	1ps
$end
$scope module project8_vlg_vec_tst $end
$var reg 1 ! clk_50MHz $end
$var reg 8 " Data [7:0] $end
$var reg 1 # Drc $end
$var reg 2 $ Mode [1:0] $end
$var reg 3 % Num [2:0] $end
$var reg 1 & rst $end
$var wire 1 ' a $end
$var wire 1 ( b $end
$var wire 1 ) c $end
$var wire 1 * d $end
$var wire 1 + Dout [7] $end
$var wire 1 , Dout [6] $end
$var wire 1 - Dout [5] $end
$var wire 1 . Dout [4] $end
$var wire 1 / Dout [3] $end
$var wire 1 0 Dout [2] $end
$var wire 1 1 Dout [1] $end
$var wire 1 2 Dout [0] $end
$var wire 1 3 ds1 $end
$var wire 1 4 ds2 $end
$var wire 1 5 ds3 $end
$var wire 1 6 ds4 $end
$var wire 1 7 ds5 $end
$var wire 1 8 ds6 $end
$var wire 1 9 ds7 $end
$var wire 1 : ds8 $end
$var wire 1 ; e $end
$var wire 1 < f $end
$var wire 1 = g $end
$var wire 1 > sampler $end
$scope module i1 $end
$var wire 1 ? gnd $end
$var wire 1 @ vcc $end
$var wire 1 A unknown $end
$var tri1 1 B devclrn $end
$var tri1 1 C devpor $end
$var tri1 1 D devoe $end
$var wire 1 E Data[6]~input_o $end
$var wire 1 F Num[1]~input_o $end
$var wire 1 G Num[0]~input_o $end
$var wire 1 H Data[1]~input_o $end
$var wire 1 I Data[0]~input_o $end
$var wire 1 J Data[3]~input_o $end
$var wire 1 K clk_50MHz~input_o $end
$var wire 1 L ds1~output_o $end
$var wire 1 M ds2~output_o $end
$var wire 1 N ds3~output_o $end
$var wire 1 O ds4~output_o $end
$var wire 1 P ds5~output_o $end
$var wire 1 Q ds6~output_o $end
$var wire 1 R ds7~output_o $end
$var wire 1 S ds8~output_o $end
$var wire 1 T a~output_o $end
$var wire 1 U b~output_o $end
$var wire 1 V c~output_o $end
$var wire 1 W d~output_o $end
$var wire 1 X e~output_o $end
$var wire 1 Y f~output_o $end
$var wire 1 Z g~output_o $end
$var wire 1 [ Dout[7]~output_o $end
$var wire 1 \ Dout[6]~output_o $end
$var wire 1 ] Dout[5]~output_o $end
$var wire 1 ^ Dout[4]~output_o $end
$var wire 1 _ Dout[3]~output_o $end
$var wire 1 ` Dout[2]~output_o $end
$var wire 1 a Dout[1]~output_o $end
$var wire 1 b Dout[0]~output_o $end
$var wire 1 c inst2|inst|6~0_combout $end
$var wire 1 d inst2|inst|8~0_combout $end
$var wire 1 e inst2|inst|8~q $end
$var wire 1 f inst2|inst2|15~7_combout $end
$var wire 1 g inst2|inst|9~q $end
$var wire 1 h inst2|inst|6~q $end
$var wire 1 i inst2|inst|7~0_combout $end
$var wire 1 j inst2|inst|7~q $end
$var wire 1 k inst2|inst2|15~0_combout $end
$var wire 1 l inst2|inst2|15~1_combout $end
$var wire 1 m inst2|inst2|15~2_combout $end
$var wire 1 n inst2|inst2|15~3_combout $end
$var wire 1 o inst2|inst2|15~4_combout $end
$var wire 1 p inst2|inst2|15~5_combout $end
$var wire 1 q inst2|inst2|15~6_combout $end
$var wire 1 r Data[7]~input_o $end
$var wire 1 s Mode[1]~input_o $end
$var wire 1 t Mode[0]~input_o $end
$var wire 1 u Drc~input_o $end
$var wire 1 v Data[2]~input_o $end
$var wire 1 w inst|state[3]~3_combout $end
$var wire 1 x Num[2]~input_o $end
$var wire 1 y inst|count~1_combout $end
$var wire 1 z inst|count~2_combout $end
$var wire 1 { inst|LessThan0~1_combout $end
$var wire 1 | inst|LessThan0~0_combout $end
$var wire 1 } inst|count~0_combout $end
$var wire 1 ~ inst|LessThan0~2_combout $end
$var wire 1 !! inst|Equal0~0_combout $end
$var wire 1 "! inst|state~15_combout $end
$var wire 1 #! inst|state[2]~0_combout $end
$var wire 1 $! inst|state~12_combout $end
$var wire 1 %! inst|state[1]~1_combout $end
$var wire 1 &! inst|state~13_combout $end
$var wire 1 '! inst|Mux1~0_combout $end
$var wire 1 (! inst|state[0]~2_combout $end
$var wire 1 )! inst|state~14_combout $end
$var wire 1 *! inst|Mux0~0_combout $end
$var wire 1 +! inst|state[7]~7_combout $end
$var wire 1 ,! inst|state~11_combout $end
$var wire 1 -! Data[5]~input_o $end
$var wire 1 .! inst|state[4]~6_combout $end
$var wire 1 /! Data[4]~input_o $end
$var wire 1 0! inst|state~10_combout $end
$var wire 1 1! inst|state[5]~5_combout $end
$var wire 1 2! inst|state~9_combout $end
$var wire 1 3! inst|state[6]~4_combout $end
$var wire 1 4! inst|state~8_combout $end
$var wire 1 5! inst3|Mux0~0_combout $end
$var wire 1 6! inst|Dout[7]~feeder_combout $end
$var wire 1 7! inst3|Mux0~1_combout $end
$var wire 1 8! inst|Dout[1]~feeder_combout $end
$var wire 1 9! inst|Dout[0]~feeder_combout $end
$var wire 1 :! inst3|Mux0~2_combout $end
$var wire 1 ;! inst3|Mux0~3_combout $end
$var wire 1 <! inst3|Mux0~4_combout $end
$var wire 1 =! rst~input_o $end
$var wire 1 >! inst1|clk_1KHz~0_combout $end
$var wire 1 ?! inst1|clk_1KHz~feeder_combout $end
$var wire 1 @! inst1|clk_1KHz~q $end
$var wire 1 A! inst1|clk_1KHz~clkctrl_outclk $end
$var wire 1 B! inst|Dout[2]~feeder_combout $end
$var wire 1 C! inst|Dout [7] $end
$var wire 1 D! inst|Dout [6] $end
$var wire 1 E! inst|Dout [5] $end
$var wire 1 F! inst|Dout [4] $end
$var wire 1 G! inst|Dout [3] $end
$var wire 1 H! inst|Dout [2] $end
$var wire 1 I! inst|Dout [1] $end
$var wire 1 J! inst|Dout [0] $end
$var wire 1 K! inst|count [2] $end
$var wire 1 L! inst|count [1] $end
$var wire 1 M! inst|count [0] $end
$var wire 1 N! inst|state [7] $end
$var wire 1 O! inst|state [6] $end
$var wire 1 P! inst|state [5] $end
$var wire 1 Q! inst|state [4] $end
$var wire 1 R! inst|state [3] $end
$var wire 1 S! inst|state [2] $end
$var wire 1 T! inst|state [1] $end
$var wire 1 U! inst|state [0] $end
$upscope $end
$upscope $end
$enddefinitions $end
#0
$dumpvars
0!
b11110111 "
0#
b0 $
b0 %
1&
1'
1(
1)
1*
02
01
00
0/
0.
0-
0,
0+
03
14
15
16
17
18
19
1:
1;
1<
0=
x>
0?
1@
xA
1B
1C
1D
1E
0F
0G
1H
1I
0J
0K
0L
1M
1N
1O
1P
1Q
1R
1S
1T
1U
1V
1W
1X
1Y
0Z
0[
0\
0]
0^
0_
0`
0a
0b
1c
0d
0e
0f
0g
0h
0i
0j
1k
0l
0m
0n
0o
0p
0q
1r
0s
0t
0u
1v
1w
0x
0y
0z
1{
0|
0}
1~
1!!
0"!
1#!
1$!
1%!
1&!
0'!
0(!
1)!
0*!
1+!
1,!
1-!
0.!
1/!
10!
11!
12!
13!
14!
05!
16!
07!
18!
19!
0:!
0;!
0<!
1=!
1>!
1?!
0@!
0A!
1B!
0J!
0I!
0H!
0G!
0F!
0E!
0D!
0C!
0M!
0L!
0K!
0U!
0T!
0S!
0R!
0Q!
0P!
0O!
0N!
$end
#1000
1!
1K
0>
1@!
1A!
0>!
0?!
1O!
1P!
1Q!
1N!
1U!
1T!
1S!
1h
1H!
1F!
1J!
1I!
1C!
1E!
1D!
1:!
15!
1l
0k
1i
0c
1`
1^
1b
1a
1[
1]
1\
10
1.
12
11
1+
1-
1,
1;!
17!
0M
1L
04
13
1<!
0T
0W
0X
0Y
0'
0*
0;
0<
#2000
0!
0K
1>
#3000
1!
1K
0>
0@!
0A!
1>!
1?!
#4000
0!
0K
1>
#5000
1!
1K
0>
1@!
1A!
0>!
0?!
1j
0h
0;!
0:!
05!
1m
0l
1c
0<!
1;!
0N
1M
05
14
1<!
1T
1W
1X
1Y
1'
1*
1;
1<
0T
0W
0X
0Y
0'
0*
0;
0<
#6000
0!
0K
1>
#7000
1!
1K
0>
0@!
0A!
1>!
1?!
#8000
0!
0K
1>
#9000
1!
1K
0>
1@!
1A!
0>!
0?!
1h
1:!
15!
1n
0m
0i
1d
0c
0;!
0O
1N
06
15
0<!
1T
1W
1X
1Y
1'
1*
1;
1<
#10000
0!
0K
1>
#11000
1!
1K
0>
0@!
0A!
1>!
1?!
#12000
0!
0K
1>
#13000
1!
1K
0>
1@!
1A!
0>!
0?!
0j
0h
1e
1;!
1o
0n
1c
1<!
0P
1O
0T
0W
0X
0Y
07
16
0'
0*
0;
0<
#14000
0!
0K
1>
#15000
1!
1K
0>
0@!
0A!
1>!
1?!
#16000
0!
0K
1>
#17000
1!
1K
0>
1@!
1A!
0>!
0?!
1h
1p
0o
1i
0c
0Q
1P
08
17
#18000
0!
0K
1>
#19000
1!
1K
0>
0@!
0A!
1>!
1?!
#20000
0!
0K
1>
#21000
1!
1K
0>
1@!
1A!
0>!
0?!
1j
0h
0;!
0:!
05!
1q
0p
1c
1;!
0R
1Q
09
18
#22000
0!
0K
1>
#23000
1!
1K
0>
0@!
0A!
1>!
1?!
#24000
0!
0K
1>
#25000
1!
1K
0>
1@!
1A!
0>!
0?!
1h
1:!
15!
0q
0i
1f
0d
0c
0;!
1R
0S
19
0:
#26000
0!
0K
1>
#27000
1!
1K
0>
0@!
0A!
1>!
1?!
#28000
0!
0K
1>
#29000
1!
1K
0>
1@!
1A!
0>!
0?!
0j
0h
1g
0e
1;!
1k
0f
1c
0<!
1<!
0L
1S
1T
1W
1X
1Y
03
1:
1'
1*
1;
1<
0T
0W
0X
0Y
0'
0*
0;
0<
0g
#30000
0!
0K
1>
#31000
1!
1K
0>
0@!
0A!
1>!
1?!
#32000
0!
0K
1>
#33000
1!
1K
0>
1@!
1A!
0>!
0?!
1h
1l
0k
1i
0c
0M
1L
04
13
#34000
0!
0K
1>
#35000
1!
1K
0>
0@!
0A!
1>!
1?!
#36000
0!
0K
1>
#37000
1!
1K
0>
1@!
1A!
0>!
0?!
1j
0h
0;!
0:!
05!
1m
0l
1c
0<!
1;!
0N
1M
05
14
1<!
1T
1W
1X
1Y
1'
1*
1;
1<
0T
0W
0X
0Y
0'
0*
0;
0<
#38000
0!
0K
1>
#39000
1!
1K
0>
0@!
0A!
1>!
1?!
#40000
0!
0K
1>
#41000
1!
1K
0>
1@!
1A!
0>!
0?!
1h
1:!
15!
1n
0m
0i
1d
0c
0;!
0O
1N
06
15
0<!
1T
1W
1X
1Y
1'
1*
1;
1<
#42000
0!
0K
1>
#43000
1!
1K
0>
0@!
0A!
1>!
1?!
#44000
0!
0K
1>
#45000
1!
1K
0>
1@!
1A!
0>!
0?!
0j
0h
1e
1;!
1o
0n
1c
1<!
0P
1O
0T
0W
0X
0Y
07
16
0'
0*
0;
0<
#46000
0!
0K
1>
#47000
1!
1K
0>
0@!
0A!
1>!
1?!
#48000
0!
0K
1>
#49000
1!
1K
0>
1@!
1A!
0>!
0?!
1h
1p
0o
1i
0c
0Q
1P
08
17
#50000
0!
0K
1>
#51000
1!
1K
0>
0@!
0A!
1>!
1?!
#52000
0!
0K
1>
#53000
1!
1K
0>
1@!
1A!
0>!
0?!
1j
0h
0;!
0:!
05!
1q
0p
1c
1;!
0R
1Q
09
18
#54000
0!
0K
1>
#55000
1!
1K
0>
0@!
0A!
1>!
1?!
#56000
0!
0K
1>
#57000
1!
1K
0>
1@!
1A!
0>!
0?!
1h
1:!
15!
0q
0i
1f
0d
0c
0;!
1R
0S
19
0:
#58000
0!
0K
1>
#59000
1!
1K
0>
0@!
0A!
1>!
1?!
#60000
0!
0K
1>
#61000
1!
1K
0>
1@!
1A!
0>!
0?!
0j
0h
1g
0e
1;!
1k
0f
1c
0<!
1<!
0L
1S
1T
1W
1X
1Y
03
1:
1'
1*
1;
1<
0T
0W
0X
0Y
0'
0*
0;
0<
0g
#62000
0!
0K
1>
#63000
1!
1K
0>
0@!
0A!
1>!
1?!
#64000
0!
0K
1>
#65000
1!
1K
0>
1@!
1A!
0>!
0?!
1h
1l
0k
1i
0c
0M
1L
04
13
#66000
0!
0K
1>
#67000
1!
1K
0>
0@!
0A!
1>!
1?!
#68000
0!
0K
1>
#69000
1!
1K
0>
1@!
1A!
0>!
0?!
1j
0h
0;!
0:!
05!
1m
0l
1c
0<!
1;!
0N
1M
05
14
1<!
1T
1W
1X
1Y
1'
1*
1;
1<
0T
0W
0X
0Y
0'
0*
0;
0<
#70000
0!
0K
1>
#71000
1!
1K
0>
0@!
0A!
1>!
1?!
#72000
0!
0K
1>
#73000
1!
1K
0>
1@!
1A!
0>!
0?!
1h
1:!
15!
1n
0m
0i
1d
0c
0;!
0O
1N
06
15
0<!
1T
1W
1X
1Y
1'
1*
1;
1<
#74000
0!
0K
1>
#75000
1!
1K
0>
0@!
0A!
1>!
1?!
#76000
0!
0K
1>
#77000
1!
1K
0>
1@!
1A!
0>!
0?!
0j
0h
1e
1;!
1o
0n
1c
1<!
0P
1O
0T
0W
0X
0Y
07
16
0'
0*
0;
0<
#78000
0!
0K
1>
#79000
1!
1K
0>
0@!
0A!
1>!
1?!
#80000
0!
0K
1>
#81000
1!
1K
0>
1@!
1A!
0>!
0?!
1h
1p
0o
1i
0c
0Q
1P
08
17
#82000
0!
0K
1>
#83000
1!
1K
0>
0@!
0A!
1>!
1?!
#84000
0!
0K
1>
#85000
1!
1K
0>
1@!
1A!
0>!
0?!
1j
0h
0;!
0:!
05!
1q
0p
1c
1;!
0R
1Q
09
18
#86000
0!
0K
1>
#87000
1!
1K
0>
0@!
0A!
1>!
1?!
#88000
0!
0K
1>
#89000
1!
1K
0>
1@!
1A!
0>!
0?!
1h
1:!
15!
0q
0i
1f
0d
0c
0;!
1R
0S
19
0:
#90000
0!
0K
1>
#91000
1!
1K
0>
0@!
0A!
1>!
1?!
#92000
0!
0K
1>
#93000
1!
1K
0>
1@!
1A!
0>!
0?!
0j
0h
1g
0e
1;!
1k
0f
1c
0<!
1<!
0L
1S
1T
1W
1X
1Y
03
1:
1'
1*
1;
1<
0T
0W
0X
0Y
0'
0*
0;
0<
0g
#94000
0!
0K
1>
#95000
1!
1K
0>
0@!
0A!
1>!
1?!
#96000
0!
0K
1>
#97000
1!
1K
0>
1@!
1A!
0>!
0?!
1h
1l
0k
1i
0c
0M
1L
04
13
#98000
0!
0K
1>
#99000
1!
1K
0>
0@!
0A!
1>!
1?!
#100000
0!
0K
1>
#101000
1!
1K
0>
1@!
1A!
0>!
0?!
1j
0h
0;!
0:!
05!
1m
0l
1c
0<!
1;!
0N
1M
05
14
1<!
1T
1W
1X
1Y
1'
1*
1;
1<
0T
0W
0X
0Y
0'
0*
0;
0<
#102000
0!
0K
1>
#103000
1!
1K
0>
0@!
0A!
1>!
1?!
#104000
0!
0K
1>
#105000
1!
1K
0>
1@!
1A!
0>!
0?!
1h
1:!
15!
1n
0m
0i
1d
0c
0;!
0O
1N
06
15
0<!
1T
1W
1X
1Y
1'
1*
1;
1<
#106000
0!
0K
1>
#107000
1!
1K
0>
0@!
0A!
1>!
1?!
#108000
0!
0K
1>
#109000
1!
1K
0>
1@!
1A!
0>!
0?!
0j
0h
1e
1;!
1o
0n
1c
1<!
0P
1O
0T
0W
0X
0Y
07
16
0'
0*
0;
0<
#110000
0!
0K
1>
#111000
1!
1K
0>
0@!
0A!
1>!
1?!
#112000
0!
0K
1>
#113000
1!
1K
0>
1@!
1A!
0>!
0?!
1h
1p
0o
1i
0c
0Q
1P
08
17
#114000
0!
0K
1>
#115000
1!
1K
0>
0@!
0A!
1>!
1?!
#116000
0!
0K
1>
#117000
1!
1K
0>
1@!
1A!
0>!
0?!
1j
0h
0;!
0:!
05!
1q
0p
1c
1;!
0R
1Q
09
18
#118000
0!
0K
1>
#119000
1!
1K
0>
0@!
0A!
1>!
1?!
#120000
0!
0K
1>
#121000
1!
1K
0>
1@!
1A!
0>!
0?!
1h
1:!
15!
0q
0i
1f
0d
0c
0;!
1R
0S
19
0:
#122000
0!
0K
1>
#123000
1!
1K
0>
0@!
0A!
1>!
1?!
#124000
0!
0K
1>
#125000
1!
1K
0>
1@!
1A!
0>!
0?!
0j
0h
1g
0e
1;!
1k
0f
1c
0<!
1<!
0L
1S
1T
1W
1X
1Y
03
1:
1'
1*
1;
1<
0T
0W
0X
0Y
0'
0*
0;
0<
0g
#126000
0!
0K
1>
#127000
1!
1K
0>
0@!
0A!
1>!
1?!
#128000
0!
0K
1>
#129000
1!
1K
0>
1@!
1A!
0>!
0?!
1h
1l
0k
1i
0c
0M
1L
04
13
#130000
0!
0K
1>
#131000
1!
1K
0>
0@!
0A!
1>!
1?!
#132000
0!
0K
1>
#133000
1!
1K
0>
1@!
1A!
0>!
0?!
1j
0h
0;!
0:!
05!
1m
0l
1c
0<!
1;!
0N
1M
05
14
1<!
1T
1W
1X
1Y
1'
1*
1;
1<
0T
0W
0X
0Y
0'
0*
0;
0<
#134000
0!
0K
1>
#135000
1!
1K
0>
0@!
0A!
1>!
1?!
#136000
0!
0K
1>
#137000
1!
1K
0>
1@!
1A!
0>!
0?!
1h
1:!
15!
1n
0m
0i
1d
0c
0;!
0O
1N
06
15
0<!
1T
1W
1X
1Y
1'
1*
1;
1<
#138000
0!
0K
1>
#139000
1!
1K
0>
0@!
0A!
1>!
1?!
#140000
0!
0K
1>
#141000
1!
1K
0>
1@!
1A!
0>!
0?!
0j
0h
1e
1;!
1o
0n
1c
1<!
0P
1O
0T
0W
0X
0Y
07
16
0'
0*
0;
0<
#142000
0!
0K
1>
#143000
1!
1K
0>
0@!
0A!
1>!
1?!
#144000
0!
0K
1>
#145000
1!
1K
0>
1@!
1A!
0>!
0?!
1h
1p
0o
1i
0c
0Q
1P
08
17
#146000
0!
0K
1>
#147000
1!
1K
0>
0@!
0A!
1>!
1?!
#148000
0!
0K
1>
#149000
1!
1K
0>
1@!
1A!
0>!
0?!
1j
0h
0;!
0:!
05!
1q
0p
1c
1;!
0R
1Q
09
18
#150000
0!
0K
1>
#151000
1!
1K
0>
0@!
0A!
1>!
1?!
#152000
0!
0K
1>
#153000
1!
1K
0>
1@!
1A!
0>!
0?!
1h
1:!
15!
0q
0i
1f
0d
0c
0;!
1R
0S
19
0:
#154000
0!
0K
1>
#155000
1!
1K
0>
0@!
0A!
1>!
1?!
#156000
0!
0K
1>
#157000
1!
1K
0>
1@!
1A!
0>!
0?!
0j
0h
1g
0e
1;!
1k
0f
1c
0<!
1<!
0L
1S
1T
1W
1X
1Y
03
1:
1'
1*
1;
1<
0T
0W
0X
0Y
0'
0*
0;
0<
0g
#158000
0!
0K
1>
#159000
1!
1K
0>
0@!
0A!
1>!
1?!
#160000
0!
0K
1>
#161000
1!
1K
0>
1@!
1A!
0>!
0?!
1h
1l
0k
1i
0c
0M
1L
04
13
#162000
0!
0K
1>
#163000
1!
1K
0>
0@!
0A!
1>!
1?!
#164000
0!
0K
1>
#165000
1!
1K
0>
1@!
1A!
0>!
0?!
1j
0h
0;!
0:!
05!
1m
0l
1c
0<!
1;!
0N
1M
05
14
1<!
1T
1W
1X
1Y
1'
1*
1;
1<
0T
0W
0X
0Y
0'
0*
0;
0<
#166000
0!
0K
1>
#167000
1!
1K
0>
0@!
0A!
1>!
1?!
#168000
0!
0K
1>
#169000
1!
1K
0>
1@!
1A!
0>!
0?!
1h
1:!
15!
1n
0m
0i
1d
0c
0;!
0O
1N
06
15
0<!
1T
1W
1X
1Y
1'
1*
1;
1<
#170000
0!
0K
1>
#171000
1!
1K
0>
0@!
0A!
1>!
1?!
#172000
0!
0K
1>
#173000
1!
1K
0>
1@!
1A!
0>!
0?!
0j
0h
1e
1;!
1o
0n
1c
1<!
0P
1O
0T
0W
0X
0Y
07
16
0'
0*
0;
0<
#174000
0!
0K
1>
#175000
1!
1K
0>
0@!
0A!
1>!
1?!
#176000
0!
0K
1>
#177000
1!
1K
0>
1@!
1A!
0>!
0?!
1h
1p
0o
1i
0c
0Q
1P
08
17
#178000
0!
0K
1>
#179000
1!
1K
0>
0@!
0A!
1>!
1?!
#180000
0!
0K
1>
#181000
1!
1K
0>
1@!
1A!
0>!
0?!
1j
0h
0;!
0:!
05!
1q
0p
1c
1;!
0R
1Q
09
18
#182000
0!
0K
1>
#183000
1!
1K
0>
0@!
0A!
1>!
1?!
#184000
0!
0K
1>
#185000
1!
1K
0>
1@!
1A!
0>!
0?!
1h
1:!
15!
0q
0i
1f
0d
0c
0;!
1R
0S
19
0:
#186000
0!
0K
1>
#187000
1!
1K
0>
0@!
0A!
1>!
1?!
#188000
0!
0K
1>
#189000
1!
1K
0>
1@!
1A!
0>!
0?!
0j
0h
1g
0e
1;!
1k
0f
1c
0<!
1<!
0L
1S
1T
1W
1X
1Y
03
1:
1'
1*
1;
1<
0T
0W
0X
0Y
0'
0*
0;
0<
0g
#190000
0!
0K
1>
#191000
1!
1K
0>
0@!
0A!
1>!
1?!
#192000
0!
0K
1>
#193000
1!
1K
0>
1@!
1A!
0>!
0?!
1h
1l
0k
1i
0c
0M
1L
04
13
#194000
0!
0K
1>
#195000
1!
1K
0>
0@!
0A!
1>!
1?!
#196000
0!
0K
1>
#197000
1!
1K
0>
1@!
1A!
0>!
0?!
1j
0h
0;!
0:!
05!
1m
0l
1c
0<!
1;!
0N
1M
05
14
1<!
1T
1W
1X
1Y
1'
1*
1;
1<
0T
0W
0X
0Y
0'
0*
0;
0<
#198000
0!
0K
1>
#199000
1!
1K
0>
0@!
0A!
1>!
1?!
#200000
0!
0K
1>
#201000
1!
1K
0>
1@!
1A!
0>!
0?!
1h
1:!
15!
1n
0m
0i
1d
0c
0;!
0O
1N
06
15
0<!
1T
1W
1X
1Y
1'
1*
1;
1<
#202000
0!
0K
1>
#203000
1!
1K
0>
0@!
0A!
1>!
1?!
#204000
0!
0K
1>
#205000
1!
1K
0>
1@!
1A!
0>!
0?!
0j
0h
1e
1;!
1o
0n
1c
1<!
0P
1O
0T
0W
0X
0Y
07
16
0'
0*
0;
0<
#206000
0!
0K
1>
#207000
1!
1K
0>
0@!
0A!
1>!
1?!
#208000
0!
0K
1>
#209000
1!
1K
0>
1@!
1A!
0>!
0?!
1h
1p
0o
1i
0c
0Q
1P
08
17
#210000
0!
0K
1>
#211000
1!
1K
0>
0@!
0A!
1>!
1?!
#212000
0!
0K
1>
#213000
1!
1K
0>
1@!
1A!
0>!
0?!
1j
0h
0;!
0:!
05!
1q
0p
1c
1;!
0R
1Q
09
18
#214000
0!
0K
1>
#215000
1!
1K
0>
0@!
0A!
1>!
1?!
#216000
0!
0K
1>
#217000
1!
1K
0>
1@!
1A!
0>!
0?!
1h
1:!
15!
0q
0i
1f
0d
0c
0;!
1R
0S
19
0:
#218000
0!
0K
1>
#219000
1!
1K
0>
0@!
0A!
1>!
1?!
#220000
0!
0K
1>
#221000
1!
1K
0>
1@!
1A!
0>!
0?!
0j
0h
1g
0e
1;!
1k
0f
1c
0<!
1<!
0L
1S
1T
1W
1X
1Y
03
1:
1'
1*
1;
1<
0T
0W
0X
0Y
0'
0*
0;
0<
0g
#222000
0!
0K
1>
#223000
1!
1K
0>
0@!
0A!
1>!
1?!
#224000
0!
0K
1>
#225000
1!
1K
0>
1@!
1A!
0>!
0?!
1h
1l
0k
1i
0c
0M
1L
04
13
#226000
0!
0K
1>
#227000
1!
1K
0>
0@!
0A!
1>!
1?!
#228000
0!
0K
1>
#229000
1!
1K
0>
1@!
1A!
0>!
0?!
1j
0h
0;!
0:!
05!
1m
0l
1c
0<!
1;!
0N
1M
05
14
1<!
1T
1W
1X
1Y
1'
1*
1;
1<
0T
0W
0X
0Y
0'
0*
0;
0<
#230000
0!
0K
1>
#231000
1!
1K
0>
0@!
0A!
1>!
1?!
#232000
0!
0K
1>
#233000
1!
1K
0>
1@!
1A!
0>!
0?!
1h
1:!
15!
1n
0m
0i
1d
0c
0;!
0O
1N
06
15
0<!
1T
1W
1X
1Y
1'
1*
1;
1<
#234000
0!
0K
1>
#235000
1!
1K
0>
0@!
0A!
1>!
1?!
#236000
0!
0K
1>
#237000
1!
1K
0>
1@!
1A!
0>!
0?!
0j
0h
1e
1;!
1o
0n
1c
1<!
0P
1O
0T
0W
0X
0Y
07
16
0'
0*
0;
0<
#238000
0!
0K
1>
#239000
1!
1K
0>
0@!
0A!
1>!
1?!
#240000
0!
0K
1>
#241000
1!
1K
0>
1@!
1A!
0>!
0?!
1h
1p
0o
1i
0c
0Q
1P
08
17
#242000
0!
0K
1>
#243000
1!
1K
0>
0@!
0A!
1>!
1?!
#244000
0!
0K
1>
#245000
1!
1K
0>
1@!
1A!
0>!
0?!
1j
0h
0;!
0:!
05!
1q
0p
1c
1;!
0R
1Q
09
18
#246000
0!
0K
1>
#247000
1!
1K
0>
0@!
0A!
1>!
1?!
#248000
0!
0K
1>
#249000
1!
1K
0>
1@!
1A!
0>!
0?!
1h
1:!
15!
0q
0i
1f
0d
0c
0;!
1R
0S
19
0:
#250000
b1 $
b1 %
0!
1G
1t
0K
1>
0~
1}
1*!
#251000
1!
1K
0>
0@!
0A!
1>!
1?!
#252000
0!
0K
1>
#253000
1!
1K
0>
1@!
1A!
0>!
0?!
0Q!
0U!
1R!
1M!
0j
0h
1g
0e
0!!
1~
0}
1y
1;!
1k
0f
1c
0<!
00!
0)!
1"!
0y
1<!
0L
1S
1T
1W
1X
1Y
03
1:
1'
1*
1;
1<
01!
09!
0%!
1.!
0T
0W
0X
0Y
0'
0*
0;
0<
0g
#254000
0!
0K
1>
#255000
1!
1K
0>
0@!
0A!
1>!
1?!
#256000
0!
0K
1>
#257000
1!
1K
0>
1@!
1A!
0>!
0?!
0M!
1h
0F!
0J!
1G!
1!!
0~
1}
1l
0k
1i
0c
0^
0b
1_
0.
02
1/
10!
1)!
0"!
0M
1L
04
13
11!
19!
1%!
0.!
#258000
0!
0K
1>
#259000
1!
1K
0>
0@!
0A!
1>!
1?!
#260000
0!
0K
1>
#261000
1!
1K
0>
1@!
1A!
0>!
0?!
1M!
1j
0h
0!!
1~
0}
1y
0:!
05!
1m
0l
1c
00!
0)!
1"!
0y
0N
1M
05
14
01!
09!
0%!
1.!
#262000
0!
0K
1>
#263000
1!
1K
0>
0@!
0A!
1>!
1?!
#264000
0!
0K
1>
#265000
1!
1K
0>
1@!
1A!
0>!
0?!
0M!
1h
1!!
0~
1}
1:!
15!
1n
0m
0i
1d
0c
10!
1)!
0"!
0O
1N
06
15
11!
19!
1%!
0.!
#266000
0!
0K
1>
#267000
1!
1K
0>
0@!
0A!
1>!
1?!
#268000
0!
0K
1>
#269000
1!
1K
0>
1@!
1A!
0>!
0?!
1M!
0j
0h
1e
0!!
1~
0}
1y
0:!
05!
1o
0n
1c
00!
0)!
1"!
0y
0;!
07!
0P
1O
07
16
01!
09!
0%!
1.!
0<!
1T
1W
1X
1Y
1'
1*
1;
1<
#270000
0!
0K
1>
#271000
1!
1K
0>
0@!
0A!
1>!
1?!
#272000
0!
0K
1>
#273000
1!
1K
0>
1@!
1A!
0>!
0?!
0M!
1h
1!!
0~
1}
1:!
15!
1p
0o
1i
0c
10!
1)!
0"!
1;!
17!
0Q
1P
08
17
11!
19!
1%!
0.!
1<!
0T
0W
0X
0Y
0'
0*
0;
0<
#274000
0!
0K
1>
#275000
1!
1K
0>
0@!
0A!
1>!
1?!
#276000
0!
0K
1>
#277000
1!
1K
0>
1@!
1A!
0>!
0?!
1M!
1j
0h
0!!
1~
0}
1y
0:!
05!
1q
0p
1c
00!
0)!
1"!
0y
0R
1Q
09
18
01!
09!
0%!
1.!
#278000
0!
0K
1>
#279000
1!
1K
0>
0@!
0A!
1>!
1?!
#280000
0!
0K
1>
#281000
1!
1K
0>
1@!
1A!
0>!
0?!
0M!
1h
1!!
0~
1}
1:!
15!
0q
0i
1f
0d
0c
10!
1)!
0"!
1R
0S
19
0:
11!
19!
1%!
0.!
#282000
0!
0K
1>
#283000
1!
1K
0>
0@!
0A!
1>!
1?!
#284000
0!
0K
1>
#285000
1!
1K
0>
1@!
1A!
0>!
0?!
1M!
0j
0h
1g
0e
0!!
1~
0}
1y
0:!
05!
1k
0f
1c
00!
0)!
1"!
0y
0;!
07!
0L
1S
03
1:
01!
09!
0%!
1.!
0<!
1T
1W
1X
1Y
1'
1*
1;
1<
0g
#286000
0!
0K
1>
#287000
1!
1K
0>
0@!
0A!
1>!
1?!
#288000
0!
0K
1>
#289000
1!
1K
0>
1@!
1A!
0>!
0?!
0M!
1h
1!!
0~
1}
1:!
15!
1l
0k
1i
0c
10!
1)!
0"!
1;!
17!
0M
1L
04
13
11!
19!
1%!
0.!
1<!
0T
0W
0X
0Y
0'
0*
0;
0<
#290000
0!
0K
1>
#291000
1!
1K
0>
0@!
0A!
1>!
1?!
#292000
0!
0K
1>
#293000
1!
1K
0>
1@!
1A!
0>!
0?!
1M!
1j
0h
0!!
1~
0}
1y
0:!
05!
1m
0l
1c
00!
0)!
1"!
0y
0N
1M
05
14
01!
09!
0%!
1.!
#294000
0!
0K
1>
#295000
1!
1K
0>
0@!
0A!
1>!
1?!
#296000
0!
0K
1>
#297000
1!
1K
0>
1@!
1A!
0>!
0?!
0M!
1h
1!!
0~
1}
1:!
15!
1n
0m
0i
1d
0c
10!
1)!
0"!
0O
1N
06
15
11!
19!
1%!
0.!
#298000
0!
0K
1>
#299000
1!
1K
0>
0@!
0A!
1>!
1?!
#300000
0!
0K
1>
#301000
1!
1K
0>
1@!
1A!
0>!
0?!
1M!
0j
0h
1e
0!!
1~
0}
1y
0:!
05!
1o
0n
1c
00!
0)!
1"!
0y
0;!
07!
0P
1O
07
16
01!
09!
0%!
1.!
0<!
1T
1W
1X
1Y
1'
1*
1;
1<
#302000
0!
0K
1>
#303000
1!
1K
0>
0@!
0A!
1>!
1?!
