1/simulation/qsim/test.msim.vcd
$comment
	File created using the following command:
		vcd file test.msim.vcd -direction
$end
$date
	Thu Oct 12 16:51:10 2017
$end
$version
	ModelSim Version 10.1d
$end
$timescale
	1ps
$end
$scope module test_vlg_vec_tst $end
$var reg 1 ! A $end
$var reg 1 " B $end
$var reg 1 # C $end
$var wire 1 $ F $end
$var wire 1 % sampler $end
$scope module i1 $end
$var wire 1 & gnd $end
$var wire 1 ' vcc $end
$var wire 1 ( unknown $end
$var tri1 1 ) devclrn $end
$var tri1 1 * devpor $end
$var tri1 1 + devoe $end
$var wire 1 , F~output_o $end
$var wire 1 - A~input_o $end
$var wire 1 . C~input_o $end
$var wire 1 / B~input_o $end
$var wire 1 0 inst9~0_combout $end
$upscope $end
$upscope $end
$enddefinitions $end
#0
$dumpvars
0!
0"
0#
x$
x%
0&
1'
x(
1)
1*
1+
x,
0-
0.
0/
x0
$end
#3838
00
#6807
0,
0$
#250000
1#
0%
#250887
1.
#254440
10
#257501
1,
1$
#500000
1"
0#
1%
#500857
1/
#500938
0.
#750000
1#
0%
#750887
1.
#1000000
1!
0"
0#
1%
#1000877
1-
#1000908
0/
#1000938
0.
#1250000
1#
0%
#1250887
1.
#1254442
00
#1257411
0,
0$
#1500000
1"
0#
1%
#1500857
1/
#1500938
0.
#1750000
1#
0%
#1750887
1.
