6/simulation/qsim/project6.msim.vcd
$comment
	File created using the following command:
		vcd file project6.msim.vcd -direction
$end
$date
	Tue Nov 14 01:21:47 2017
$end
$version
	ModelSim Version 10.1d
$end
$timescale
	1ps
$end
$scope module project6_vlg_vec_tst $end
$var reg 1 ! CLK $end
$var reg 1 " reset $end
$var wire 1 # a $end
$var wire 1 $ b $end
$var wire 1 % c $end
$var wire 1 & d $end
$var wire 1 ' ds1 $end
$var wire 1 ( ds2 $end
$var wire 1 ) e $end
$var wire 1 * f $end
$var wire 1 + g $end
$var wire 1 , RCO $end
$var wire 1 - sampler $end
$scope module i1 $end
$var wire 1 . gnd $end
$var wire 1 / vcc $end
$var wire 1 0 unknown $end
$var tri1 1 1 devclrn $end
$var tri1 1 2 devpor $end
$var tri1 1 3 devoe $end
$var wire 1 4 inst1|cnt_1Hz[0]~32_combout $end
$var wire 1 5 inst1|cnt_1Hz[0]~33 $end
$var wire 1 6 inst1|cnt_1Hz[1]~35_combout $end
$var wire 1 7 inst1|cnt_1Hz[1]~36 $end
$var wire 1 8 inst1|cnt_1Hz[2]~37_combout $end
$var wire 1 9 inst1|cnt_1Hz[2]~38 $end
$var wire 1 : inst1|cnt_1Hz[3]~39_combout $end
$var wire 1 ; inst1|cnt_1Hz[3]~40 $end
$var wire 1 < inst1|cnt_1Hz[4]~41_combout $end
$var wire 1 = inst1|cnt_1Hz[4]~42 $end
$var wire 1 > inst1|cnt_1Hz[5]~43_combout $end
$var wire 1 ? inst1|cnt_1Hz[5]~44 $end
$var wire 1 @ inst1|cnt_1Hz[6]~45_combout $end
$var wire 1 A inst1|cnt_1Hz[6]~46 $end
$var wire 1 B inst1|cnt_1Hz[7]~47_combout $end
$var wire 1 C inst1|cnt_1Hz[7]~48 $end
$var wire 1 D inst1|cnt_1Hz[8]~49_combout $end
$var wire 1 E inst1|cnt_1Hz[8]~50 $end
$var wire 1 F inst1|cnt_1Hz[9]~51_combout $end
$var wire 1 G inst1|cnt_1Hz[9]~52 $end
$var wire 1 H inst1|cnt_1Hz[10]~53_combout $end
$var wire 1 I inst1|cnt_1Hz[10]~54 $end
$var wire 1 J inst1|cnt_1Hz[11]~55_combout $end
$var wire 1 K inst1|cnt_1Hz[11]~56 $end
$var wire 1 L inst1|cnt_1Hz[12]~57_combout $end
$var wire 1 M inst1|cnt_1Hz[12]~58 $end
$var wire 1 N inst1|cnt_1Hz[13]~59_combout $end
$var wire 1 O inst1|cnt_1Hz[13]~60 $end
$var wire 1 P inst1|cnt_1Hz[14]~61_combout $end
$var wire 1 Q inst1|cnt_1Hz[14]~62 $end
$var wire 1 R inst1|cnt_1Hz[15]~63_combout $end
$var wire 1 S inst1|cnt_1Hz[15]~64 $end
$var wire 1 T inst1|cnt_1Hz[16]~65_combout $end
$var wire 1 U inst1|cnt_1Hz[16]~66 $end
$var wire 1 V inst1|cnt_1Hz[17]~67_combout $end
$var wire 1 W inst1|cnt_1Hz[17]~68 $end
$var wire 1 X inst1|cnt_1Hz[18]~69_combout $end
$var wire 1 Y inst1|cnt_1Hz[18]~70 $end
$var wire 1 Z inst1|cnt_1Hz[19]~71_combout $end
$var wire 1 [ inst1|cnt_1Hz[19]~72 $end
$var wire 1 \ inst1|cnt_1Hz[20]~73_combout $end
$var wire 1 ] inst1|cnt_1Hz[20]~74 $end
$var wire 1 ^ inst1|cnt_1Hz[21]~75_combout $end
$var wire 1 _ inst1|cnt_1Hz[21]~76 $end
$var wire 1 ` inst1|cnt_1Hz[22]~77_combout $end
$var wire 1 a inst1|cnt_1Hz[22]~78 $end
$var wire 1 b inst1|cnt_1Hz[23]~79_combout $end
$var wire 1 c inst1|cnt_1Hz[23]~80 $end
$var wire 1 d inst1|cnt_1Hz[24]~81_combout $end
$var wire 1 e inst1|cnt_1Hz[24]~82 $end
$var wire 1 f inst1|cnt_1Hz[25]~83_combout $end
$var wire 1 g inst1|cnt_1Hz[25]~84 $end
$var wire 1 h inst1|cnt_1Hz[26]~85_combout $end
$var wire 1 i inst1|cnt_1Hz[26]~86 $end
$var wire 1 j inst1|cnt_1Hz[27]~87_combout $end
$var wire 1 k inst1|cnt_1Hz[27]~88 $end
$var wire 1 l inst1|cnt_1Hz[28]~89_combout $end
$var wire 1 m inst1|cnt_1Hz[28]~90 $end
$var wire 1 n inst1|cnt_1Hz[29]~91_combout $end
$var wire 1 o inst1|cnt_1Hz[29]~92 $end
$var wire 1 p inst1|cnt_1Hz[30]~93_combout $end
$var wire 1 q inst1|cnt_1Hz[30]~94 $end
$var wire 1 r inst1|cnt_1Hz[31]~95_combout $end
$var wire 1 s inst1|clk_1Hz~q $end
$var wire 1 t inst1|clk_1KHz~q $end
$var wire 1 u inst1|LessThan3~0_combout $end
$var wire 1 v inst1|LessThan3~1_combout $end
$var wire 1 w inst1|LessThan3~2_combout $end
$var wire 1 x inst1|LessThan3~3_combout $end
$var wire 1 y inst1|LessThan3~4_combout $end
$var wire 1 z inst1|LessThan3~5_combout $end
$var wire 1 { inst1|LessThan3~6_combout $end
$var wire 1 | inst1|LessThan3~7_combout $end
$var wire 1 } inst1|LessThan3~8_combout $end
$var wire 1 ~ inst1|LessThan3~9_combout $end
$var wire 1 !! inst1|LessThan3~10_combout $end
$var wire 1 "! inst1|clk_1Hz~0_combout $end
$var wire 1 #! inst1|clk_1KHz~0_combout $end
$var wire 1 $! inst1|cnt_1Hz[18]~34_combout $end
$var wire 1 %! reset~input_o $end
$var wire 1 &! CLK~input_o $end
$var wire 1 '! inst1|clk_1Hz~clkctrl_outclk $end
$var wire 1 (! CLK~inputclkctrl_outclk $end
$var wire 1 )! inst1|clk_1Hz~feeder_combout $end
$var wire 1 *! inst1|clk_1KHz~feeder_combout $end
$var wire 1 +! a~output_o $end
$var wire 1 ,! b~output_o $end
$var wire 1 -! c~output_o $end
$var wire 1 .! d~output_o $end
$var wire 1 /! e~output_o $end
$var wire 1 0! f~output_o $end
$var wire 1 1! g~output_o $end
$var wire 1 2! ds1~output_o $end
$var wire 1 3! ds2~output_o $end
$var wire 1 4! RCO~output_o $end
$var wire 1 5! inst8|inst|43~0_combout $end
$var wire 1 6! inst8|inst|43~q $end
$var wire 1 7! inst8|inst2~combout $end
$var wire 1 8! inst8|inst1|39~combout $end
$var wire 1 9! inst8|inst1|43~q $end
$var wire 1 :! inst8|inst|40~combout $end
$var wire 1 ;! inst8|inst|44~q $end
$var wire 1 <! inst8|inst|45~0_combout $end
$var wire 1 =! inst8|inst|45~q $end
$var wire 1 >! inst8|inst2~0_combout $end
$var wire 1 ?! inst8|inst2~1_combout $end
$var wire 1 @! inst8|inst|42~combout $end
$var wire 1 A! inst8|inst|46~q $end
$var wire 1 B! inst8|inst1|22~0_combout $end
$var wire 1 C! inst8|inst1|42~2_combout $end
$var wire 1 D! inst8|inst1|42~3_combout $end
$var wire 1 E! inst8|inst1|46~q $end
$var wire 1 F! inst8|inst1|40~combout $end
$var wire 1 G! inst8|inst1|44~q $end
$var wire 1 H! inst|out~1_combout $end
$var wire 1 I! inst8|inst1|41~combout $end
$var wire 1 J! inst8|inst1|45~q $end
$var wire 1 K! inst|out~2_combout $end
$var wire 1 L! inst|out~3_combout $end
$var wire 1 M! inst6|inst|sub|34~0_combout $end
$var wire 1 N! inst6|inst|sub|34~q $end
$var wire 1 O! inst|out~0_combout $end
$var wire 1 P! inst9|a~0_combout $end
$var wire 1 Q! inst9|WideOr0~0_combout $end
$var wire 1 R! inst9|WideOr1~0_combout $end
$var wire 1 S! inst9|WideOr2~0_combout $end
$var wire 1 T! inst9|WideOr3~0_combout $end
$var wire 1 U! inst9|WideOr4~0_combout $end
$var wire 1 V! inst9|WideOr5~0_combout $end
$var wire 1 W! inst1|cnt_1Hz [31] $end
$var wire 1 X! inst1|cnt_1Hz [30] $end
$var wire 1 Y! inst1|cnt_1Hz [29] $end
$var wire 1 Z! inst1|cnt_1Hz [28] $end
$var wire 1 [! inst1|cnt_1Hz [27] $end
$var wire 1 \! inst1|cnt_1Hz [26] $end
$var wire 1 ]! inst1|cnt_1Hz [25] $end
$var wire 1 ^! inst1|cnt_1Hz [24] $end
$var wire 1 _! inst1|cnt_1Hz [23] $end
$var wire 1 `! inst1|cnt_1Hz [22] $end
$var wire 1 a! inst1|cnt_1Hz [21] $end
$var wire 1 b! inst1|cnt_1Hz [20] $end
$var wire 1 c! inst1|cnt_1Hz [19] $end
$var wire 1 d! inst1|cnt_1Hz [18] $end
$var wire 1 e! inst1|cnt_1Hz [17] $end
$var wire 1 f! inst1|cnt_1Hz [16] $end
$var wire 1 g! inst1|cnt_1Hz [15] $end
$var wire 1 h! inst1|cnt_1Hz [14] $end
$var wire 1 i! inst1|cnt_1Hz [13] $end
$var wire 1 j! inst1|cnt_1Hz [12] $end
$var wire 1 k! inst1|cnt_1Hz [11] $end
$var wire 1 l! inst1|cnt_1Hz [10] $end
$var wire 1 m! inst1|cnt_1Hz [9] $end
$var wire 1 n! inst1|cnt_1Hz [8] $end
$var wire 1 o! inst1|cnt_1Hz [7] $end
$var wire 1 p! inst1|cnt_1Hz [6] $end
$var wire 1 q! inst1|cnt_1Hz [5] $end
$var wire 1 r! inst1|cnt_1Hz [4] $end
$var wire 1 s! inst1|cnt_1Hz [3] $end
$var wire 1 t! inst1|cnt_1Hz [2] $end
$var wire 1 u! inst1|cnt_1Hz [1] $end
$var wire 1 v! inst1|cnt_1Hz [0] $end
$upscope $end
$upscope $end
$enddefinitions $end
#0
$dumpvars
0!
1"
1#
1$
1%
1&
0'
1(
1)
1*
0+
0,
x-
0.
1/
x0
11
12
13
14
05
06
17
08
09
0:
1;
0<
0=
0>
1?
0@
0A
0B
1C
0D
0E
0F
1G
0H
0I
0J
1K
0L
0M
0N
1O
0P
0Q
0R
1S
0T
0U
0V
1W
0X
0Y
0Z
1[
0\
0]
0^
1_
0`
0a
0b
1c
0d
0e
0f
1g
0h
0i
0j
1k
0l
0m
0n
1o
0p
0q
0r
0s
0t
1u
1v
1w
1x
1y
1z
1{
1|
1}
1~
1!!
0"!
1#!
0$!
1%!
0&!
0'!
0(!
0)!
1*!
1+!
1,!
1-!
1.!
1/!
10!
01!
02!
13!
04!
15!
06!
07!
08!
09!
0:!
0;!
0<!
0=!
0>!
0?!
0@!
0A!
0B!
0C!
0D!
0E!
0F!
0G!
0H!
0I!
0J!
0K!
0L!
1M!
0N!
0O!
0P!
0Q!
0R!
0S!
0T!
0U!
0V!
0v!
0u!
0t!
0s!
0r!
0q!
0p!
0o!
0n!
0m!
0l!
0k!
0j!
0i!
0h!
0g!
0f!
0e!
0d!
0c!
0b!
0a!
0`!
0_!
0^!
0]!
0\!
0[!
0Z!
0Y!
0X!
0W!
$end
#10000
1!
1&!
1(!
0-
1t
1v!
0#!
15
04
0*!
16
1N!
0M!
12!
03!
1'
0(
#20000
0!
0&!
0(!
1-
#30000
1!
1&!
1(!
0-
0t
1u!
0v!
1#!
07
06
05
14
1*!
18
17
16
08
#40000
0!
0&!
0(!
1-
#50000
1!
1&!
1(!
0-
1t
1v!
0#!
15
04
0*!
07
06
18
0N!
1M!
02!
13!
0'
1(
#60000
0!
0&!
0(!
1-
#70000
1!
1&!
1(!
0-
0t
1t!
0u!
0v!
1#!
19
08
17
16
05
14
1*!
1:
09
18
06
0:
#80000
0!
0&!
0(!
1-
#90000
1!
1&!
1(!
0-
1t
1v!
0#!
15
04
0*!
16
1N!
0M!
12!
03!
1'
0(
#100000
0!
0&!
0(!
1-
#110000
1!
1&!
1(!
0-
0t
1u!
0v!
1#!
07
06
05
14
1*!
19
08
17
16
1:
09
18
0:
#120000
0!
0&!
0(!
1-
#130000
1!
1&!
1(!
0-
1t
1v!
0#!
0u
15
04
0*!
0y
07
06
0!!
19
08
1$!
1"!
1:
1)!
0N!
1M!
02!
13!
0'
1(
#140000
0!
0&!
0(!
1-
#150000
1!
1&!
1(!
0-
0t
1s
0t!
0u!
0v!
1'!
1#!
0"!
1u
09
18
17
16
05
14
1*!
0)!
1y
0:
08
06
1!!
0$!
1"!
1)!
16!
1O!
1:!
05!
1U!
1T!
1S!
1P!
00!
0/!
0.!
0+!
0*
0)
0&
0#
#160000
0!
0&!
0(!
1-
#170000
1!
1&!
1(!
0-
1t
1v!
0#!
15
04
0*!
16
1N!
0O!
0M!
12!
03!
1'
0(
0U!
0T!
0S!
0P!
10!
1/!
1.!
1+!
1*
1)
1&
1#
#180000
0!
0&!
0(!
1-
#190000
1!
1&!
1(!
0-
0t
1u!
0v!
1#!
07
06
05
14
1*!
18
17
16
08
#200000
0!
0&!
0(!
1-
#210000
1!
1&!
1(!
0-
1t
1v!
0#!
15
04
0*!
07
06
18
0N!
1O!
1M!
02!
13!
0'
1(
1U!
1T!
1S!
1P!
00!
0/!
0.!
0+!
0*
0)
0&
0#
#220000
0!
0&!
0(!
1-
#230000
1!
1&!
1(!
0-
0t
1t!
0u!
0v!
1#!
19
08
17
16
05
14
1*!
1:
09
18
06
0:
#240000
0!
0&!
0(!
1-
#250000
1!
1&!
1(!
0-
1t
1v!
0#!
15
04
0*!
16
1N!
0O!
0M!
12!
03!
1'
0(
0U!
0T!
0S!
0P!
10!
1/!
1.!
1+!
1*
1)
1&
1#
#260000
0!
0&!
0(!
1-
#270000
1!
1&!
1(!
0-
0t
1u!
0v!
1#!
07
06
05
14
1*!
19
08
17
16
1:
09
18
0:
#280000
0!
0&!
0(!
1-
#290000
1!
1&!
1(!
0-
1t
1v!
0#!
0u
15
04
0*!
0y
07
06
0!!
19
08
1$!
0"!
1:
0)!
0N!
1O!
1M!
02!
13!
0'
1(
1U!
1T!
1S!
1P!
00!
0/!
0.!
0+!
0*
0)
0&
0#
#300000
0!
0&!
0(!
1-
#310000
1!
1&!
1(!
0-
0t
0s
0t!
0u!
0v!
0'!
1#!
1"!
1u
09
18
17
16
05
14
1*!
1)!
1y
0:
08
06
1!!
0$!
0"!
0)!
#320000
0!
0&!
0(!
1-
#330000
1!
1&!
1(!
0-
1t
1v!
0#!
15
04
0*!
16
1N!
0O!
0M!
12!
03!
1'
0(
0U!
0T!
0S!
0P!
10!
1/!
1.!
1+!
1*
1)
1&
1#
#340000
0!
0&!
0(!
1-
#350000
1!
1&!
1(!
0-
0t
1u!
0v!
1#!
07
06
05
14
1*!
18
17
16
08
#360000
0!
0&!
0(!
1-
#370000
1!
1&!
1(!
0-
1t
1v!
0#!
15
04
0*!
07
06
18
0N!
1O!
1M!
02!
13!
0'
1(
1U!
1T!
1S!
1P!
00!
0/!
0.!
0+!
0*
0)
0&
0#
#380000
0!
0&!
0(!
1-
#390000
1!
1&!
1(!
0-
0t
1t!
0u!
0v!
1#!
19
08
17
16
05
14
1*!
1:
09
18
06
0:
#400000
0!
0&!
0(!
1-
#410000
1!
1&!
1(!
0-
1t
1v!
0#!
15
04
0*!
16
1N!
0O!
0M!
12!
03!
1'
0(
0U!
0T!
0S!
0P!
10!
1/!
1.!
1+!
1*
1)
1&
1#
#420000
0!
0&!
0(!
1-
#430000
1!
1&!
1(!
0-
0t
1u!
0v!
1#!
07
06
05
14
1*!
19
08
17
16
1:
09
18
0:
#440000
0!
0&!
0(!
1-
#450000
1!
1&!
1(!
0-
1t
1v!
0#!
0u
15
04
0*!
0y
07
06
0!!
19
08
1$!
1"!
1:
1)!
0N!
1O!
1M!
02!
13!
0'
1(
1U!
1T!
1S!
1P!
00!
0/!
0.!
0+!
0*
0)
0&
0#
#460000
0!
0&!
0(!
1-
#470000
1!
1&!
1(!
0-
0t
1s
0t!
0u!
0v!
1'!
1#!
0"!
1u
09
18
17
16
05
14
1*!
0)!
1y
0:
08
06
1!!
0$!
1"!
1)!
1;!
06!
1H!
0O!
15!
0T!
0S!
1R!
0P!
1V!
1/!
1.!
0-!
1+!
11!
1)
1&
0%
1#
1+
#480000
0!
0&!
0(!
1-
#490000
1!
1&!
1(!
0-
1t
1v!
0#!
15
04
0*!
16
1N!
0M!
0H!
12!
03!
1'
0(
0U!
0R!
0V!
10!
1-!
01!
1*
1%
0+
#500000
0!
0&!
0(!
1-
#510000
1!
1&!
1(!
0-
0t
1u!
0v!
1#!
07
06
05
14
1*!
18
17
16
08
#520000
0!
0&!
0(!
1-
#530000
1!
1&!
1(!
0-
1t
1v!
0#!
15
04
0*!
07
06
18
0N!
1M!
1H!
02!
13!
0'
1(
1U!
1R!
1V!
00!
0-!
11!
0*
0%
1+
#540000
0!
0&!
0(!
1-
#550000
1!
1&!
1(!
0-
0t
1t!
0u!
0v!
1#!
19
08
17
16
05
14
1*!
1:
09
18
06
0:
#560000
0!
0&!
0(!
1-
#570000
1!
1&!
1(!
0-
1t
1v!
0#!
15
04
0*!
16
1N!
0M!
0H!
12!
03!
1'
0(
0U!
0R!
0V!
10!
1-!
01!
1*
1%
0+
#580000
0!
0&!
0(!
1-
#590000
1!
1&!
1(!
0-
0t
1u!
0v!
1#!
07
06
05
14
1*!
19
08
17
16
1:
09
18
0:
#600000
0!
0&!
0(!
1-
#610000
1!
1&!
1(!
0-
1t
1v!
0#!
0u
15
04
0*!
0y
07
06
0!!
19
08
1$!
0"!
1:
0)!
0N!
1M!
1H!
02!
13!
0'
1(
1U!
1R!
1V!
00!
0-!
11!
0*
0%
1+
#620000
0!
0&!
0(!
1-
#630000
1!
1&!
1(!
0-
0t
0s
0t!
0u!
0v!
0'!
1#!
1"!
1u
09
18
17
16
05
14
1*!
1)!
1y
0:
08
06
1!!
0$!
0"!
0)!
#640000
0!
0&!
0(!
1-
#650000
1!
1&!
1(!
0-
1t
1v!
0#!
15
04
0*!
16
1N!
0M!
0H!
12!
03!
1'
0(
0U!
0R!
0V!
10!
1-!
01!
1*
1%
0+
#660000
0!
0&!
0(!
1-
#670000
1!
1&!
1(!
0-
0t
1u!
0v!
1#!
07
06
05
14
1*!
18
17
16
08
#680000
0!
0&!
0(!
1-
#690000
1!
1&!
1(!
0-
1t
1v!
0#!
15
04
0*!
07
06
18
0N!
1M!
1H!
02!
13!
0'
1(
1U!
1R!
1V!
00!
0-!
11!
0*
0%
1+
#700000
0!
0&!
0(!
1-
#710000
1!
1&!
1(!
0-
0t
1t!
0u!
0v!
1#!
19
08
17
16
05
14
1*!
1:
09
18
06
0:
#720000
0!
0&!
0(!
1-
#730000
1!
1&!
1(!
0-
1t
1v!
0#!
15
04
0*!
16
1N!
0M!
0H!
12!
03!
1'
0(
0U!
0R!
0V!
10!
1-!
01!
1*
1%
0+
#740000
0!
0&!
0(!
1-
#750000
1!
1&!
1(!
0-
0t
1u!
0v!
1#!
07
06
05
14
1*!
19
08
17
16
1:
09
18
0:
#760000
0!
0&!
0(!
1-
#770000
1!
1&!
1(!
0-
1t
1v!
0#!
0u
15
04
0*!
0y
07
06
0!!
19
08
1$!
1"!
1:
1)!
0N!
1M!
1H!
02!
13!
0'
1(
1U!
1R!
1V!
00!
0-!
11!
0*
0%
1+
#780000
0!
0&!
0(!
1-
#790000
1!
1&!
1(!
0-
0t
1s
0t!
0u!
0v!
1'!
1#!
0"!
1u
09
18
17
16
05
14
1*!
0)!
1y
0:
08
06
1!!
0$!
1"!
1)!
16!
1O!
1<!
0:!
05!
1T!
0R!
0/!
1-!
0)
1%
#800000
0!
0&!
0(!
1-
#810000
1!
1&!
1(!
0-
1t
1v!
0#!
15
04
0*!
16
1N!
0O!
0M!
0H!
12!
03!
1'
0(
0U!
0T!
0V!
10!
1/!
01!
1*
1)
0+
#820000
0!
0&!
0(!
1-
#830000
1!
1&!
1(!
0-
0t
1u!
0v!
1#!
07
06
05
14
1*!
18
17
16
08
#840000
0!
0&!
0(!
1-
#850000
1!
1&!
1(!
0-
1t
1v!
0#!
15
04
0*!
07
06
18
0N!
1O!
1M!
1H!
02!
13!
0'
1(
1U!
1T!
1V!
00!
0/!
11!
0*
0)
1+
#860000
0!
0&!
0(!
1-
#870000
1!
1&!
1(!
0-
0t
1t!
0u!
0v!
1#!
19
08
17
16
05
14
1*!
1:
09
18
06
0:
#880000
0!
0&!
0(!
1-
#890000
1!
1&!
1(!
0-
1t
1v!
0#!
15
04
0*!
16
1N!
0O!
0M!
0H!
12!
03!
1'
0(
0U!
0T!
0V!
10!
1/!
01!
1*
1)
0+
#900000
0!
0&!
0(!
1-
#910000
1!
1&!
1(!
0-
0t
1u!
0v!
1#!
07
06
05
14
1*!
19
08
17
16
1:
09
18
0:
#920000
0!
0&!
0(!
1-
#930000
1!
1&!
1(!
0-
1t
1v!
0#!
0u
15
04
0*!
0y
07
06
0!!
19
08
1$!
0"!
1:
0)!
0N!
1O!
1M!
1H!
02!
13!
0'
1(
1U!
1T!
1V!
00!
0/!
11!
0*
0)
1+
#940000
0!
0&!
0(!
1-
#950000
1!
1&!
1(!
0-
0t
0s
0t!
0u!
0v!
0'!
1#!
1"!
1u
09
18
17
16
05
14
1*!
1)!
1y
0:
08
06
1!!
0$!
0"!
0)!
#960000
0!
0&!
0(!
1-
#970000
1!
1&!
1(!
0-
1t
1v!
0#!
15
04
0*!
16
1N!
0O!
0M!
0H!
12!
03!
1'
0(
0U!
0T!
0V!
10!
1/!
01!
1*
1)
0+
#980000
0!
0&!
0(!
1-
#990000
1!
1&!
1(!
0-
0t
1u!
0v!
1#!
07
06
05
14
1*!
18
17
16
08
#1000000
0!
0&!
0(!
1-
#1010000
1!
1&!
1(!
0-
1t
1v!
0#!
15
04
0*!
07
06
18
0N!
1O!
1M!
1H!
02!
13!
0'
1(
1U!
1T!
1V!
00!
0/!
11!
0*
0)
1+
#1020000
0!
0&!
0(!
1-
#1030000
1!
1&!
1(!
0-
0t
1t!
0u!
0v!
1#!
19
08
17
16
05
14
1*!
1:
09
18
06
0:
#1040000
0!
0&!
0(!
1-
#1050000
1!
1&!
1(!
0-
1t
1v!
0#!
15
04
0*!
16
1N!
0O!
0M!
0H!
12!
03!
1'
0(
0U!
0T!
0V!
10!
1/!
01!
1*
1)
0+
#1060000
0!
0&!
0(!
1-
#1070000
1!
1&!
1(!
0-
0t
1u!
0v!
1#!
07
06
05
14
1*!
19
08
17
16
1:
09
18
0:
#1080000
0!
0&!
0(!
1-
#1090000
1!
1&!
1(!
0-
1t
1v!
0#!
0u
15
04
0*!
0y
07
06
0!!
19
08
1$!
1"!
1:
1)!
0N!
1O!
1M!
1H!
02!
13!
0'
1(
1U!
1T!
1V!
00!
0/!
11!
0*
0)
1+
#1100000
0!
0&!
0(!
1-
#1110000
1!
1&!
1(!
0-
0t
1s
0t!
0u!
0v!
1'!
1#!
0"!
1u
09
18
17
16
05
14
1*!
0)!
1y
0:
08
06
1!!
0$!
1"!
1)!
1=!
0;!
06!
1K!
0H!
0O!
15!
0U!
1S!
1P!
10!
0.!
0+!
1*
0&
0#
#1120000
0!
0&!
0(!
1-
#1130000
1!
1&!
1(!
0-
1t
1v!
0#!
15
04
0*!
16
1N!
0M!
0K!
12!
03!
1'
0(
0T!
0S!
0P!
0V!
1/!
1.!
1+!
01!
1)
1&
1#
0+
#1140000
0!
0&!
0(!
1-
#1150000
1!
1&!
1(!
0-
0t
1u!
0v!
1#!
07
06
05
14
1*!
18
17
16
08
#1160000
0!
0&!
0(!
1-
#1170000
1!
1&!
1(!
0-
1t
1v!
0#!
15
04
0*!
07
06
18
0N!
1M!
1K!
02!
13!
0'
1(
1T!
1S!
1P!
1V!
0/!
0.!
0+!
11!
0)
0&
0#
1+
#1180000
0!
0&!
0(!
1-
#1190000
1!
1&!
1(!
0-
0t
1t!
0u!
0v!
1#!
19
08
17
16
05
14
1*!
1:
09
18
06
0:
#1200000
0!
0&!
0(!
1-
#1210000
1!
1&!
1(!
0-
1t
1v!
0#!
15
04
0*!
16
1N!
0M!
0K!
12!
03!
1'
0(
0T!
0S!
0P!
0V!
1/!
1.!
1+!
01!
1)
1&
1#
0+
#1220000
0!
0&!
0(!
1-
#1230000
1!
1&!
1(!
0-
0t
1u!
0v!
1#!
07
06
05
14
1*!
19
08
17
16
1:
09
18
0:
#1240000
0!
0&!
0(!
1-
#1250000
1!
1&!
1(!
0-
1t
1v!
0#!
0u
15
04
0*!
0y
07
06
0!!
19
08
1$!
0"!
1:
0)!
0N!
1M!
1K!
02!
13!
0'
1(
1T!
1S!
1P!
1V!
0/!
0.!
0+!
11!
0)
0&
0#
1+
#1260000
0!
0&!
0(!
1-
#1270000
1!
1&!
1(!
0-
0t
0s
0t!
0u!
0v!
0'!
1#!
1"!
1u
09
18
17
16
05
14
1*!
1)!
1y
0:
08
06
1!!
0$!
0"!
0)!
#1280000
0!
0&!
0(!
1-
#1290000
1!
1&!
1(!
0-
1t
1v!
0#!
15
04
0*!
16
1N!
0M!
0K!
12!
03!
1'
0(
0T!
0S!
0P!
0V!
1/!
1.!
1+!
01!
1)
1&
1#
0+
#1300000
0!
0&!
0(!
1-
#1310000
1!
1&!
1(!
0-
0t
1u!
0v!
1#!
07
06
05
14
1*!
18
17
16
08
#1320000
0!
0&!
0(!
1-
#1330000
1!
1&!
1(!
0-
1t
1v!
0#!
15
04
0*!
07
06
18
0N!
1M!
1K!
02!
13!
0'
1(
1T!
1S!
1P!
1V!
0/!
0.!
0+!
11!
0)
0&
0#
1+
#1340000
0!
0&!
0(!
1-
#1350000
1!
1&!
1(!
0-
0t
1t!
0u!
0v!
1#!
19
08
17
16
05
14
1*!
1:
09
18
06
0:
#1360000
0!
0&!
0(!
1-
#1370000
1!
1&!
1(!
0-
1t
1v!
0#!
15
04
0*!
16
1N!
0M!
0K!
12!
03!
1'
0(
0T!
0S!
0P!
0V!
1/!
1.!
1+!
01!
1)
1&
1#
0+
#1380000
0!
0&!
0(!
1-
#1390000
1!
1&!
1(!
0-
0t
1u!
0v!
1#!
07
06
05
14
1*!
19
08
17
16
1:
09
18
0:
#1400000
0!
0&!
0(!
1-
#1410000
1!
1&!
1(!
0-
1t
1v!
0#!
0u
15
04
0*!
0y
07
06
0!!
19
08
1$!
1"!
1:
1)!
0N!
1M!
1K!
02!
13!
0'
1(
1T!
1S!
1P!
1V!
0/!
0.!
0+!
11!
0)
0&
0#
1+
#1420000
0!
0&!
0(!
1-
#1430000
1!
1&!
1(!
0-
0t
1s
0t!
0u!
0v!
1'!
1#!
0"!
1u
09
18
17
16
05
14
1*!
0)!
1y
0:
08
06
1!!
0$!
1"!
1)!
16!
1O!
1:!
05!
0S!
1Q!
0P!
1.!
0,!
1+!
1&
0$
1#
#1440000
0!
0&!
0(!
1-
#1450000
1!
1&!
1(!
0-
1t
1v!
0#!
15
04
0*!
16
1N!
0O!
0M!
0K!
12!
03!
1'
0(
0T!
0Q!
0V!
1/!
1,!
01!
1)
1$
0+
#1460000
0!
0&!
0(!
1-
#1470000
1!
1&!
1(!
0-
0t
1u!
0v!
1#!
07
06
05
14
1*!
18
17
16
08
#1480000
0!
0&!
0(!
1-
#1490000
1!
1&!
1(!
0-
1t
1v!
0#!
15
04
0*!
07
06
18
0N!
1O!
1M!
1K!
02!
13!
0'
1(
1T!
1Q!
1V!
0/!
0,!
11!
0)
0$
1+
#1500000
0!
0&!
0(!
1-
#1510000
1!
1&!
1(!
0-
0t
1t!
0u!
0v!
1#!
19
08
17
16
05
14
1*!
1:
09
18
06
0:
#1520000
0!
0&!
0(!
1-
#1530000
1!
1&!
1(!
0-
1t
1v!
0#!
15
04
0*!
16
1N!
0O!
0M!
0K!
12!
03!
1'
0(
0T!
0Q!
0V!
1/!
1,!
01!
1)
1$
0+
#1540000
0!
0&!
0(!
1-
#1550000
1!
1&!
1(!
0-
0t
1u!
0v!
1#!
07
06
05
14
1*!
19
08
17
16
1:
09
18
0:
#1560000
0!
0&!
0(!
1-
#1570000
1!
1&!
1(!
0-
1t
1v!
0#!
0u
15
04
0*!
0y
07
06
0!!
19
08
1$!
0"!
1:
0)!
0N!
1O!
1M!
1K!
02!
13!
0'
1(
1T!
1Q!
1V!
0/!
0,!
11!
0)
0$
1+
#1580000
0!
0&!
0(!
1-
#1590000
1!
1&!
1(!
0-
0t
0s
0t!
0u!
0v!
0'!
1#!
1"!
1u
09
18
17
16
05
14
1*!
1)!
1y
0:
08
06
1!!
0$!
0"!
0)!
#1600000
0!
0&!
0(!
1-
#1610000
1!
1&!
1(!
0-
1t
1v!
0#!
15
04
0*!
16
1N!
0O!
0M!
0K!
12!
03!
1'
0(
0T!
0Q!
0V!
1/!
1,!
01!
1)
1$
0+
#1620000
0!
0&!
0(!
1-
#1630000
1!
1&!
1(!
0-
0t
1u!
0v!
1#!
07
06
05
14
1*!
18
17
16
08
#1640000
0!
0&!
0(!
1-
#1650000
1!
1&!
1(!
0-
1t
1v!
0#!
15
04
0*!
07
06
18
0N!
1O!
1M!
1K!
02!
13!
0'
1(
1T!
1Q!
1V!
0/!
0,!
11!
0)
0$
1+
#1660000
0!
0&!
0(!
1-
#1670000
1!
1&!
1(!
0-
0t
1t!
0u!
0v!
1#!
19
08
17
16
05
14
1*!
1:
09
18
06
0:
#1680000
0!
0&!
0(!
1-
#1690000
1!
1&!
1(!
0-
1t
1v!
0#!
15
04
0*!
16
1N!
0O!
0M!
0K!
12!
03!
1'
0(
0T!
0Q!
0V!
1/!
1,!
01!
1)
1$
0+
#1700000
0!
0&!
0(!
1-
#1710000
1!
1&!
1(!
0-
0t
1u!
0v!
1#!
07
06
05
14
1*!
19
08
17
16
1:
09
18
0:
#1720000
0!
0&!
0(!
1-
#1730000
1!
1&!
1(!
0-
1t
1v!
0#!
0u
15
04
0*!
0y
07
06
0!!
19
08
1$!
1"!
1:
1)!
0N!
1O!
1M!
1K!
02!
13!
0'
1(
1T!
1Q!
1V!
0/!
0,!
11!
0)
0$
1+
#1740000
0!
0&!
0(!
1-
