9_1/simulation/qsim/project9.msim.vcd
$comment
	File created using the following command:
		vcd file project9.msim.vcd -direction
$end
$date
	Mon Dec 25 21:00:08 2017
$end
$version
	ModelSim Version 10.1d
$end
$timescale
	1ps
$end
$scope module project9_vlg_vec_tst $end
$var reg 1 ! clk_50MHz $end
$var reg 1 " clr $end
$var reg 8 # din [7:0] $end
$var wire 1 $ a $end
$var wire 1 % b $end
$var wire 1 & c $end
$var wire 1 ' d $end
$var wire 1 ( e $end
$var wire 1 ) F $end
$var wire 1 * f_led $end
$var wire 1 + g $end
$var wire 1 , led_sel $end
$var wire 1 - pin_name1 $end
$var wire 1 . sampler $end
$scope module i1 $end
$var wire 1 / gnd $end
$var wire 1 0 vcc $end
$var wire 1 1 unknown $end
$var tri1 1 2 devclrn $end
$var tri1 1 3 devpor $end
$var tri1 1 4 devoe $end
$var wire 1 5 clk_50MHz~input_o $end
$var wire 1 6 din[1]~input_o $end
$var wire 1 7 clk_50MHz~inputclkctrl_outclk $end
$var wire 1 8 F~output_o $end
$var wire 1 9 led_sel~output_o $end
$var wire 1 : a~output_o $end
$var wire 1 ; b~output_o $end
$var wire 1 < d~output_o $end
$var wire 1 = e~output_o $end
$var wire 1 > g~output_o $end
$var wire 1 ? c~output_o $end
$var wire 1 @ f_led~output_o $end
$var wire 1 A pin_name1~output_o $end
$var wire 1 B din[5]~input_o $end
$var wire 1 C din[4]~input_o $end
$var wire 1 D din[3]~input_o $end
$var wire 1 E din[2]~input_o $end
$var wire 1 F din[0]~input_o $end
$var wire 1 G inst1|data~7_combout $end
$var wire 1 H clr~input_o $end
$var wire 1 I inst1|data~6_combout $end
$var wire 1 J inst1|data~5_combout $end
$var wire 1 K inst1|data~4_combout $end
$var wire 1 L inst1|data~3_combout $end
$var wire 1 M inst1|data~2_combout $end
$var wire 1 N din[6]~input_o $end
$var wire 1 O inst1|data~1_combout $end
$var wire 1 P din[7]~input_o $end
$var wire 1 Q inst1|data~0_combout $end
$var wire 1 R inst1|dout~0_combout $end
$var wire 1 S inst1|dout~q $end
$var wire 1 T inst|Mux2~2_combout $end
$var wire 1 U inst|Mux2~3_combout $end
$var wire 1 V inst|Mux1~0_combout $end
$var wire 1 W inst|Mux1~1_combout $end
$var wire 1 X inst|Mux3~1_combout $end
$var wire 1 Y inst|Mux3~2_combout $end
$var wire 1 Z inst|Mux3~0_combout $end
$var wire 1 [ inst|Mux0~0_combout $end
$var wire 1 \ inst|Mux0~1_combout $end
$var wire 1 ] inst|always1~0_combout $end
$var wire 1 ^ inst|always1~1_combout $end
$var wire 1 _ inst2|WideOr0~0_combout $end
$var wire 1 ` inst2|WideOr1~0_combout $end
$var wire 1 a inst2|WideOr3~0_combout $end
$var wire 1 b inst2|WideOr4~0_combout $end
$var wire 1 c inst2|WideOr6~0_combout $end
$var wire 1 d inst2|WideOr2~0_combout $end
$var wire 1 e inst2|WideOr5~0_combout $end
$var wire 1 f inst1|data [7] $end
$var wire 1 g inst1|data [6] $end
$var wire 1 h inst1|data [5] $end
$var wire 1 i inst1|data [4] $end
$var wire 1 j inst1|data [3] $end
$var wire 1 k inst1|data [2] $end
$var wire 1 l inst1|data [1] $end
$var wire 1 m inst1|data [0] $end
$var wire 1 n inst|state [3] $end
$var wire 1 o inst|state [2] $end
$var wire 1 p inst|state [1] $end
$var wire 1 q inst|state [0] $end
$upscope $end
$upscope $end
$enddefinitions $end
#0
$dumpvars
0!
0"
b11100 #
1$
1%
1&
1'
1(
1)
1*
0+
0,
0-
x.
0/
10
x1
12
13
14
05
06
07
18
09
1:
1;
1<
1=
0>
1?
1@
0A
0B
1C
1D
1E
0F
0G
0H
0I
1J
1K
1L
0M
0N
0O
0P
0Q
0R
0S
0T
0U
0V
0W
1X
1Y
1Z
0[
0\
0]
0^
0_
0`
0a
0b
0c
0d
0e
0m
0l
0k
0j
0i
0h
0g
0f
0q
0p
0o
0n
$end
#10000
1!
15
17
0.
1q
1i
1j
1k
1e
1b
1a
1_
0Y
1T
1U
0@
0=
0<
0:
0*
0(
0'
0$
#20000
0!
05
07
1.
#30000
1!
15
17
0.
0q
1p
1d
0b
0a
0_
1Y
1c
0?
1=
1<
1:
1>
0&
1(
1'
1$
1+
#40000
0!
05
07
1.
#50000
1"
1!
1H
15
17
0.
1M
0J
1q
0d
1b
0Y
1?
0=
1&
0(
#60000
0!
05
07
1.
#70000
1!
15
17
0.
0q
1h
0k
1d
0b
1Y
1O
0K
0?
1=
0&
1(
#80000
0!
05
07
1.
#90000
1!
15
17
0.
1q
1g
0j
0d
1b
0Y
1Q
0L
1?
0=
1&
0(
#100000
0!
05
07
1.
#110000
1!
15
17
0.
0q
1f
0i
1d
0b
1Y
1R
1G
0M
0?
1=
0&
1(
#120000
0!
05
07
1.
#130000
1!
15
17
0.
1q
0h
1m
1S
0d
1b
0X
1V
0T
0O
1I
0Z
1A
1-
0Y
1W
0U
1?
0=
1&
0(
#140000
0!
05
07
1.
#150000
1!
15
17
0.
0q
1o
0p
0g
1l
0e
1a
1_
1Y
1X
1T
0Q
1J
1@
0<
0:
1*
0'
0$
#160000
0!
05
07
1.
#170000
1!
15
17
0.
1q
0f
1k
0a
1`
0_
0X
1U
0R
0G
1K
0Y
1<
0;
1:
1'
0%
1$
#180000
0!
05
07
1.
#190000
1!
15
17
0.
0q
1p
1j
0m
0S
0b
1X
1L
0I
1Z
0A
0-
1Y
1=
1(
#200000
0!
05
07
1.
#210000
1!
15
17
0.
1q
1i
0l
1e
1b
1a
0`
1[
0Y
0V
0T
1M
0J
0c
1\
0W
0U
0@
0=
0<
1;
0>
0*
0(
0'
1%
0+
#220000
0!
05
07
1.
#230000
1!
15
17
0.
1n
0q
0o
0p
1h
0k
0e
0b
0a
1]
0Z
1Y
0[
1O
0K
1c
1^
0\
1@
1=
1<
1>
1*
1(
1'
1+
08
0)
#240000
0!
05
07
1.
#250000
b1011100 #
b1001100 #
1!
0C
1N
15
17
0.
0n
1q
1g
0j
1e
1b
1a
1_
0]
1Z
0Y
1T
1Q
0L
0c
0^
1U
0@
0=
0<
0:
0>
0*
0(
0'
0$
0+
18
1)
#260000
0!
05
07
1.
#270000
1!
15
17
0.
0q
1p
1f
0i
1d
0b
0a
0_
1Y
1R
1G
0M
1c
0?
1=
1<
1:
1>
0&
1(
1'
1$
1+
#280000
0!
05
07
1.
#290000
1!
15
17
0.
1q
0h
1m
1S
0d
1b
0X
1V
0T
0O
1I
0Z
1A
1-
0Y
1W
0U
1?
0=
1&
0(
#300000
0!
05
07
1.
#310000
1!
15
17
0.
0q
1o
0p
0g
1l
0e
1a
1_
1Y
1X
1T
0Q
1J
1@
0<
0:
1*
0'
0$
#320000
0!
05
07
1.
#330000
1!
15
17
0.
1q
0f
1k
0a
1`
0_
0X
1U
0R
0G
1K
0Y
1<
0;
1:
1'
0%
1$
#340000
0!
05
07
1.
#350000
1!
15
17
0.
0q
1p
1j
0m
0S
0b
1X
1L
0I
1Z
0A
0-
1Y
1=
1(
#360000
0!
05
07
1.
#370000
1!
15
17
0.
1q
1i
0l
1e
1b
1a
0`
1[
0Y
0V
0T
1M
0J
0c
1\
0W
0U
0@
0=
0<
1;
0>
0*
0(
0'
1%
0+
#380000
0!
05
07
1.
#390000
1!
15
17
0.
1n
0q
0o
0p
1h
0k
0e
0b
0a
1]
0Z
1Y
0[
1O
0K
1c
1^
0\
1@
1=
1<
1>
1*
1(
1'
1+
08
0)
#400000
0!
05
07
1.
#410000
1!
15
17
0.
0n
1q
1g
0j
1e
1b
1a
1_
0]
1Z
0Y
1T
1Q
0L
0c
0^
1U
0@
0=
0<
0:
0>
0*
0(
0'
0$
0+
18
1)
#420000
0!
05
07
1.
#430000
1!
15
17
0.
0q
1p
1f
0i
1d
0b
0a
0_
1Y
1R
1G
0M
1c
0?
1=
1<
1:
1>
0&
1(
1'
1$
1+
#440000
0!
05
07
1.
#450000
0"
1!
0H
15
17
0.
0R
0Q
1K
1J
0G
1q
0h
1m
1S
0d
1b
0X
1V
0T
0Z
1A
1-
0Y
1W
0U
1?
0=
1&
0(
#460000
0!
05
07
1.
#470000
1!
15
17
0.
0q
1o
0p
0f
1j
1k
0m
0S
0e
1a
1_
0V
1T
1Z
0A
0-
0W
1U
1@
0<
0:
1*
0'
0$
#480000
0!
05
07
1.
#490000
1!
15
17
0.
0o
1p
1e
1d
0b
0a
0_
1X
1Y
0@
0?
1=
1<
1:
0*
0&
1(
1'
1$
#500000
1"
0!
1H
05
07
1.
1Q
0O
1L
0J
#510000
1!
15
17
0.
1q
1f
0g
1i
0k
0d
1b
0Y
1R
1G
0Q
1M
0K
1?
0=
1&
0(
#520000
0!
05
07
1.
#530000
1!
15
17
0.
0q
0f
1h
0j
1m
1S
1d
0b
1Y
0U
0R
0G
1O
0L
1I
0Z
1A
1-
0?
1=
0&
1(
#540000
0!
05
07
1.
#550000
1!
15
17
0.
1q
0p
1g
0i
1l
0m
0S
0d
1b
1a
1_
0Y
1U
1Q
0M
1J
0I
1Z
0A
0-
0c
1?
0=
0<
0:
0>
1&
0(
0'
0$
0+
#560000
0!
05
07
1.
#570000
1!
15
17
0.
0q
1p
1f
0h
1k
0l
1d
0b
0a
0_
1Y
1R
1G
0O
1K
0J
1c
0?
1=
1<
1:
1>
0&
1(
1'
1$
1+
#580000
0!
05
07
1.
#590000
1!
15
17
0.
1q
0g
1j
0k
1m
1S
0d
1b
0X
1V
0T
0Q
1L
0K
1I
0Z
1A
1-
0Y
1W
0U
1?
0=
1&
0(
#600000
0!
05
07
1.
#610000
1!
15
17
0.
0q
1o
0p
0f
1i
0j
1l
0e
1a
1_
1Y
1X
1T
0R
0G
1M
0L
1J
1@
0<
0:
1*
0'
0$
#620000
0!
05
07
1.
#630000
1!
15
17
0.
1q
1h
0i
1k
0m
0S
0a
1`
0_
0Y
0V
1U
1O
0M
1K
0I
1Z
0A
0-
0W
1<
0;
1:
1'
0%
1$
#640000
0!
05
07
1.
#650000
1!
15
17
0.
0q
0o
1p
1g
0h
1j
0l
1e
1d
0b
0`
1Y
1Q
0O
1L
0J
0@
0?
1=
1;
0*
0&
1(
1%
#660000
0!
05
07
1.
#670000
1!
15
17
0.
1q
1f
0g
1i
0k
0d
1b
0Y
1R
1G
0Q
1M
0K
1?
0=
1&
0(
#680000
0!
05
07
1.
#690000
1!
15
17
0.
0q
0f
1h
0j
1m
1S
1d
0b
1Y
0U
0R
0G
1O
0L
1I
0Z
1A
1-
0?
1=
0&
1(
#700000
0!
05
07
1.
#710000
1!
15
17
0.
1q
0p
1g
0i
1l
0m
0S
0d
1b
1a
1_
0Y
1U
1Q
0M
1J
0I
1Z
0A
0-
0c
1?
0=
0<
0:
0>
1&
0(
0'
0$
0+
#720000
0!
05
07
1.
#730000
1!
15
17
0.
0q
1p
1f
0h
1k
0l
1d
0b
0a
0_
1Y
1R
1G
0O
1K
0J
1c
0?
1=
1<
1:
1>
0&
1(
1'
1$
1+
#740000
0!
05
07
1.
#750000
b1100 #
b11100 #
1!
1C
0N
15
17
0.
1q
0g
1j
0k
1m
1S
0d
1b
0X
1V
0T
0Q
1L
0K
1I
0Z
1A
1-
0Y
1W
0U
1?
0=
1&
0(
#760000
0!
05
07
1.
#770000
1!
15
17
0.
0q
1o
0p
0f
1i
0j
1l
0e
1a
1_
1Y
1X
1T
0R
0G
1M
0L
1J
1@
0<
0:
1*
0'
0$
#780000
0!
05
07
1.
#790000
1!
15
17
0.
1q
1h
0i
1k
0m
0S
0a
1`
0_
0Y
0V
1U
1O
0M
1K
0I
1Z
0A
0-
0W
1<
0;
1:
1'
0%
1$
#800000
0!
05
07
1.
#810000
1!
15
17
0.
0q
0o
1p
1g
0h
1j
0l
1e
1d
0b
0`
1Y
1Q
0O
1L
0J
0@
0?
1=
1;
0*
0&
1(
1%
#820000
0!
05
07
1.
#830000
1!
15
17
0.
1q
1f
0g
1i
0k
0d
1b
0Y
1R
1G
0Q
1M
0K
1?
0=
1&
0(
#840000
0!
05
07
1.
#850000
1!
15
17
0.
0q
0f
1h
0j
1m
1S
1d
0b
1Y
0U
0R
0G
1O
0L
1I
0Z
1A
1-
0?
1=
0&
1(
#860000
0!
05
07
1.
#870000
1!
15
17
0.
1q
0p
1g
0i
1l
0m
0S
0d
1b
1a
1_
0Y
1U
1Q
0M
1J
0I
1Z
0A
0-
0c
1?
0=
0<
0:
0>
1&
0(
0'
0$
0+
#880000
0!
05
07
1.
#890000
1!
15
17
0.
0q
1p
1f
0h
1k
0l
1d
0b
0a
0_
1Y
1R
1G
0O
1K
0J
1c
0?
1=
1<
1:
1>
0&
1(
1'
1$
1+
#900000
0!
05
07
1.
#910000
1!
15
17
0.
1q
0g
1j
0k
1m
1S
0d
1b
0X
1V
0T
0Q
1L
0K
1I
0Z
1A
1-
0Y
1W
0U
1?
0=
1&
0(
#920000
0!
05
07
1.
#930000
1!
15
17
0.
0q
1o
0p
0f
1i
0j
1l
0e
1a
1_
1Y
1X
1T
0R
0G
1M
0L
1J
1@
0<
0:
1*
0'
0$
#940000
0!
05
07
1.
#950000
1!
15
17
0.
1q
1h
0i
1k
0m
0S
0a
1`
0_
0Y
0V
1U
1O
0M
1K
0I
1Z
0A
0-
0W
1<
0;
1:
1'
0%
1$
#960000
0!
05
07
1.
#970000
1!
15
17
0.
0q
0o
1p
1g
0h
1j
0l
1e
1d
0b
0`
1Y
1Q
0O
1L
0J
0@
0?
1=
1;
0*
0&
1(
1%
#980000
0!
05
07
1.
#990000
1!
15
17
0.
1q
1f
0g
1i
0k
0d
1b
0Y
1R
1G
0Q
1M
0K
1?
0=
1&
0(
