12_3/simulation/qsim/project12.msim.vcd
$comment
	File created using the following command:
		vcd file project12.msim.vcd -direction
$end
$date
	Wed Dec 27 10:40:10 2017
$end
$version
	ModelSim Version 10.1d
$end
$timescale
	1ps
$end
$scope module motor_12_vlg_vec_tst $end
$var reg 1 ! arrival $end
$var reg 1 " clk_1KHz $end
$var reg 2 # t_floor [1:0] $end
$var wire 1 $ c_floor [1] $end
$var wire 1 % c_floor [0] $end
$var wire 1 & lock $end
$var wire 1 ' sampler $end
$scope module i1 $end
$var wire 1 ( gnd $end
$var wire 1 ) vcc $end
$var wire 1 * unknown $end
$var tri1 1 + devclrn $end
$var tri1 1 , devpor $end
$var tri1 1 - devoe $end
$var wire 1 . cnt_3[3]~23_combout $end
$var wire 1 / cnt_3[5]~27_combout $end
$var wire 1 0 cnt_3[13]~43_combout $end
$var wire 1 1 LessThan0~0_combout $end
$var wire 1 2 c_floor[0]~output_o $end
$var wire 1 3 c_floor[1]~output_o $end
$var wire 1 4 lock~output_o $end
$var wire 1 5 t_floor[1]~input_o $end
$var wire 1 6 arrival~input_o $end
$var wire 1 7 t_floor[0]~input_o $end
$var wire 1 8 clk_3Hz~0_combout $end
$var wire 1 9 clk_3Hz~1_combout $end
$var wire 1 : cnt_3[0]~16_combout $end
$var wire 1 ; cnt_3[7]~32 $end
$var wire 1 < cnt_3[8]~33_combout $end
$var wire 1 = cnt_3[8]~34 $end
$var wire 1 > cnt_3[9]~35_combout $end
$var wire 1 ? cnt_3[9]~36 $end
$var wire 1 @ cnt_3[10]~37_combout $end
$var wire 1 A cnt_3[10]~38 $end
$var wire 1 B cnt_3[11]~40 $end
$var wire 1 C cnt_3[12]~41_combout $end
$var wire 1 D cnt_3[12]~42 $end
$var wire 1 E cnt_3[13]~44 $end
$var wire 1 F cnt_3[14]~45_combout $end
$var wire 1 G cnt_3[14]~46 $end
$var wire 1 H cnt_3[15]~47_combout $end
$var wire 1 I cnt_3[11]~39_combout $end
$var wire 1 J LessThan0~2_combout $end
$var wire 1 K LessThan0~3_combout $end
$var wire 1 L cnt_3[15]~20_combout $end
$var wire 1 M cnt_3[0]~17 $end
$var wire 1 N cnt_3[1]~18_combout $end
$var wire 1 O cnt_3[1]~19 $end
$var wire 1 P cnt_3[2]~21_combout $end
$var wire 1 Q cnt_3[2]~22 $end
$var wire 1 R cnt_3[3]~24 $end
$var wire 1 S cnt_3[4]~25_combout $end
$var wire 1 T cnt_3[4]~26 $end
$var wire 1 U cnt_3[5]~28 $end
$var wire 1 V cnt_3[6]~30 $end
$var wire 1 W cnt_3[7]~31_combout $end
$var wire 1 X cnt_3[6]~29_combout $end
$var wire 1 Y LessThan0~1_combout $end
$var wire 1 Z clk_3Hz~2_combout $end
$var wire 1 [ clk_3Hz~3_combout $end
$var wire 1 \ clk_3Hz~feeder_combout $end
$var wire 1 ] clk_3Hz~q $end
$var wire 1 ^ clk_3Hz~clkctrl_outclk $end
$var wire 1 _ c_floor~1_combout $end
$var wire 1 ` c_floor[1]~reg0_q $end
$var wire 1 a c_floor~0_combout $end
$var wire 1 b c_floor[0]~reg0_q $end
$var wire 1 c clk_1KHz~input_o $end
$var wire 1 d clk_1KHz~inputclkctrl_outclk $end
$var wire 1 e c_floor_delay[1]~feeder_combout $end
$var wire 1 f c_floor_delay[0]~feeder_combout $end
$var wire 1 g lock~0_combout $end
$var wire 1 h lock~reg0_q $end
$var wire 1 i cnt_3 [15] $end
$var wire 1 j cnt_3 [14] $end
$var wire 1 k cnt_3 [13] $end
$var wire 1 l cnt_3 [12] $end
$var wire 1 m cnt_3 [11] $end
$var wire 1 n cnt_3 [10] $end
$var wire 1 o cnt_3 [9] $end
$var wire 1 p cnt_3 [8] $end
$var wire 1 q cnt_3 [7] $end
$var wire 1 r cnt_3 [6] $end
$var wire 1 s cnt_3 [5] $end
$var wire 1 t cnt_3 [4] $end
$var wire 1 u cnt_3 [3] $end
$var wire 1 v cnt_3 [2] $end
$var wire 1 w cnt_3 [1] $end
$var wire 1 x cnt_3 [0] $end
$var wire 1 y c_floor_delay [1] $end
$var wire 1 z c_floor_delay [0] $end
$upscope $end
$upscope $end
$enddefinitions $end
#0
$dumpvars
1!
0"
b11 #
0%
0$
0&
x'
0(
1)
x*
1+
1,
1-
0.
0/
00
11
02
03
04
15
16
17
18
19
1:
1;
0<
0=
0>
1?
0@
0A
1B
0C
0D
1E
0F
0G
0H
0I
1J
1K
0L
0M
0N
1O
0P
0Q
1R
0S
0T
1U
0V
0W
0X
1Y
0Z
0[
0\
0]
0^
0_
0`
1a
0b
0c
0d
0e
0f
0g
0h
0x
0w
0v
0u
0t
0s
0r
0q
0p
0o
0n
0m
0l
0k
0j
0i
0z
0y
$end
#15000
1"
1c
1d
0'
1x
1M
0:
1N
#30000
0"
0c
0d
1'
#45000
1"
1c
1d
0'
1w
0x
0O
0N
0M
1:
1P
1O
1N
0P
#60000
0"
0c
0d
1'
#75000
1"
1c
1d
0'
1x
1M
0:
0O
0N
1P
#90000
0"
0c
0d
1'
#105000
1"
1c
1d
0'
1v
0w
0x
1Q
0P
1O
1N
0M
1:
1.
0Q
1P
0N
0.
#120000
0"
0c
0d
1'
#135000
1"
1c
1d
0'
1x
1M
0:
1N
#150000
0"
0c
0d
1'
#165000
1"
1c
1d
0'
1w
0x
0O
0N
0M
1:
1Q
0P
1O
1N
1.
0Q
1P
0.
#180000
0"
0c
0d
1'
#195000
1"
1c
1d
0'
1x
1M
0:
0O
0N
1Q
0P
1.
#210000
0"
0c
0d
1'
#225000
1"
1c
1d
0'
0v
0w
0x
1u
0Q
1P
1O
1N
0M
1:
0R
0.
1R
1.
0P
0N
1S
0S
#240000
0"
0c
0d
1'
#255000
1"
1c
1d
0'
1x
1M
0:
1N
#270000
0"
0c
0d
1'
#285000
1"
1c
1d
0'
1w
0x
0O
0N
0M
1:
1P
1O
1N
0P
#300000
0"
0c
0d
1'
#315000
1"
1c
1d
0'
1x
1M
0:
0O
0N
1P
#330000
0"
0c
0d
1'
#345000
1"
1c
1d
0'
1v
0w
0x
1Q
0P
1O
1N
0M
1:
0R
0.
0Q
1P
0N
1S
1R
1.
0S
#360000
0"
0c
0d
1'
#375000
1"
1c
1d
0'
1x
1M
0:
1N
#390000
0"
0c
0d
1'
#405000
1"
1c
1d
0'
1w
0x
0O
0N
0M
1:
1Q
0P
1O
1N
0R
0.
0Q
1P
1S
1R
1.
0S
#420000
0"
0c
0d
1'
#435000
1"
1c
1d
0'
1x
1M
0:
0O
0N
1Q
0P
0R
0.
1S
#450000
0"
0c
0d
1'
#465000
1"
1c
1d
0'
1t
0v
0w
0x
0u
1T
0S
0Q
1P
1O
1N
0M
1:
1R
1.
1/
0.
0P
0N
0T
1S
0/
#480000
0"
0c
0d
1'
#495000
1"
1c
1d
0'
1x
1M
0:
1N
#510000
0"
0c
0d
1'
#525000
1"
1c
1d
0'
1w
0x
0O
0N
0M
1:
1P
1O
1N
0P
#540000
0"
0c
0d
1'
#555000
1"
1c
1d
0'
1x
1M
0:
0O
0N
1P
#570000
0"
0c
0d
1'
#585000
1"
1c
1d
0'
1v
0w
0x
1Q
0P
1O
1N
0M
1:
1.
0Q
1P
0N
0.
#600000
0"
0c
0d
1'
#615000
1"
1c
1d
0'
1x
1M
0:
1N
#630000
0"
0c
0d
1'
#645000
1"
1c
1d
0'
1w
0x
0O
0N
0M
1:
1Q
0P
1O
1N
1.
0Q
1P
0.
#660000
0"
0c
0d
1'
#675000
1"
1c
1d
0'
1x
1M
0:
0O
0N
1Q
0P
1.
#690000
0"
0c
0d
1'
#705000
1"
1c
1d
0'
0v
0w
0x
1u
0Q
1P
1O
1N
0M
1:
0R
0.
1R
1.
0P
0N
1T
0S
0T
1S
1/
0/
#720000
0"
0c
0d
1'
#735000
1"
1c
1d
0'
1x
1M
0:
1N
#750000
0"
0c
0d
1'
#765000
1"
1c
1d
0'
1w
0x
0O
0N
0M
1:
1P
1O
1N
0P
#780000
0"
0c
0d
1'
#795000
1"
1c
1d
0'
1x
1M
0:
0O
0N
1P
#800000
0!
06
1'
09
1L
#810000
0"
0c
0d
0'
#825000
1"
1c
1d
1'
0t
0w
0x
0u
0S
1O
1N
0M
1:
0.
0P
0N
#840000
0"
0c
0d
0'
#855000
1"
1c
1d
1'
#870000
0"
0c
0d
0'
#885000
1"
1c
1d
1'
#900000
0"
0c
0d
0'
#915000
1"
1c
1d
1'
#930000
0"
0c
0d
0'
#945000
1"
1c
1d
1'
#960000
0"
0c
0d
0'
#975000
1"
1c
1d
1'
#990000
0"
0c
0d
0'
#1005000
1"
1c
1d
1'
#1020000
0"
0c
0d
0'
#1035000
1"
1c
1d
1'
#1050000
0"
0c
0d
0'
#1065000
1"
1c
1d
1'
#1080000
0"
0c
0d
0'
#1095000
1"
1c
1d
1'
#1110000
0"
0c
0d
0'
#1125000
1"
1c
1d
1'
#1140000
0"
0c
0d
0'
#1155000
1"
1c
1d
1'
#1170000
0"
0c
0d
0'
#1185000
1"
1c
1d
1'
#1200000
0"
0c
0d
0'
#1215000
1"
1c
1d
1'
#1230000
0"
0c
0d
0'
#1245000
1"
1c
1d
1'
#1260000
0"
0c
0d
0'
#1275000
1"
1c
1d
1'
#1290000
0"
0c
0d
0'
#1305000
1"
1c
1d
1'
#1320000
0"
0c
0d
0'
#1335000
1"
1c
1d
1'
#1350000
0"
0c
0d
0'
#1365000
1"
1c
1d
1'
#1380000
0"
0c
0d
0'
#1395000
1"
1c
1d
1'
#1410000
0"
0c
0d
0'
#1425000
1"
1c
1d
1'
#1440000
1!
0"
16
0c
0d
0'
19
0L
#1455000
1"
1c
1d
1'
1x
1M
0:
1N
#1470000
0"
0c
0d
0'
#1485000
1"
1c
1d
1'
1w
0x
0O
0N
0M
1:
1P
1O
1N
0P
#1500000
0"
0c
0d
0'
#1515000
1"
1c
1d
1'
1x
1M
0:
0O
0N
1P
#1530000
0"
0c
0d
0'
#1545000
1"
1c
1d
1'
1v
0w
0x
1Q
0P
1O
1N
0M
1:
1.
0Q
1P
0N
0.
#1560000
0"
0c
0d
0'
#1575000
1"
1c
1d
1'
1x
1M
0:
1N
#1590000
0"
0c
0d
0'
#1605000
1"
1c
1d
1'
1w
0x
0O
0N
0M
1:
1Q
0P
1O
1N
1.
0Q
1P
0.
#1620000
0"
0c
0d
0'
#1635000
1"
1c
1d
1'
1x
1M
0:
0O
0N
1Q
0P
1.
#1650000
0"
0c
0d
0'
#1665000
1"
1c
1d
1'
0v
0w
0x
1u
0Q
1P
1O
1N
0M
1:
0R
0.
1R
1.
0P
0N
1S
0S
#1680000
0"
0c
0d
0'
#1695000
1"
1c
1d
1'
1x
1M
0:
1N
#1710000
0"
0c
0d
0'
#1725000
1"
1c
1d
1'
1w
0x
0O
0N
0M
1:
1P
1O
1N
0P
#1740000
0"
0c
0d
0'
#1755000
1"
1c
1d
1'
1x
1M
0:
0O
0N
1P
#1770000
0"
0c
0d
0'
#1785000
1"
1c
1d
1'
1v
0w
0x
1Q
0P
1O
1N
0M
1:
0R
0.
0Q
1P
0N
1S
1R
1.
0S
#1800000
0"
0c
0d
0'
#1815000
1"
1c
1d
1'
1x
1M
0:
1N
#1830000
0"
0c
0d
0'
#1845000
1"
1c
1d
1'
1w
0x
0O
0N
0M
1:
1Q
0P
1O
1N
0R
0.
0Q
1P
1S
1R
1.
0S
#1860000
0"
0c
0d
0'
#1875000
1"
1c
1d
1'
1x
1M
0:
0O
0N
1Q
0P
0R
0.
1S
#1890000
0"
0c
0d
0'
#1905000
1"
1c
1d
1'
1t
0v
0w
0x
0u
1T
0S
0Q
1P
1O
1N
0M
1:
1R
1.
1/
0.
0P
0N
0T
1S
0/
#1920000
0"
0c
0d
0'
#1935000
1"
1c
1d
1'
1x
1M
0:
1N
#1950000
0"
0c
0d
0'
#1965000
1"
1c
1d
1'
1w
0x
0O
0N
0M
1:
1P
1O
1N
0P
#1980000
0"
0c
0d
0'
#1995000
1"
1c
1d
1'
1x
1M
0:
0O
0N
1P
#2010000
0"
0c
0d
0'
#2025000
1"
1c
1d
1'
1v
0w
0x
1Q
0P
1O
1N
0M
1:
1.
0Q
1P
0N
0.
#2040000
0"
0c
0d
0'
#2055000
1"
1c
1d
1'
1x
1M
0:
1N
#2070000
0"
0c
0d
0'
#2085000
1"
1c
1d
1'
1w
0x
0O
0N
0M
1:
1Q
0P
1O
1N
1.
0Q
1P
0.
#2100000
0"
0c
0d
0'
#2115000
1"
1c
1d
1'
1x
1M
0:
0O
0N
1Q
0P
1.
#2130000
0"
0c
0d
0'
#2145000
1"
1c
1d
1'
0v
0w
0x
1u
0Q
1P
1O
1N
0M
1:
0R
0.
1R
1.
0P
0N
1T
0S
0T
1S
1/
0/
#2160000
0"
0c
0d
0'
#2175000
1"
1c
1d
1'
1x
1M
0:
1N
#2190000
0"
0c
0d
0'
#2205000
1"
1c
1d
1'
1w
0x
0O
0N
0M
1:
1P
1O
1N
0P
#2220000
0"
0c
0d
0'
#2235000
1"
1c
1d
1'
1x
1M
0:
0O
0N
1P
#2250000
0"
0c
0d
0'
#2265000
1"
1c
1d
1'
1v
0w
0x
1Q
0P
1O
1N
0M
1:
0R
0.
0Q
1P
0N
1T
0S
1R
1.
1/
0T
1S
0/
#2280000
0"
0c
0d
0'
#2295000
1"
1c
1d
1'
1x
1M
0:
1N
#2310000
0"
0c
0d
0'
#2325000
1"
1c
1d
1'
1w
0x
0O
0N
01
0M
1:
1Q
0P
1Z
1L
1O
1N
0R
0.
1[
0Q
1P
1T
0S
1\
1R
1.
1/
0T
1S
0/
#2340000
0"
0c
0d
0'
#2355000
1"
1c
1d
1'
1]
0t
0v
0w
0u
1^
0S
11
0P
0N
0.
0Z
0L
0[
0\
1b
1g
1f
0a
1_
08
12
1%
#2370000
0"
0c
0d
0'
#2385000
1"
1c
1d
1'
1z
0]
1x
0^
1h
0g
1M
0:
14
1&
1N
#2400000
0"
0c
0d
0'
#2415000
1"
1c
1d
1'
1w
0x
0h
0O
0N
0M
1:
04
0&
1P
1O
1N
0P
#2430000
0"
0c
0d
0'
#2445000
1"
1c
1d
1'
1x
1M
0:
0O
0N
1P
#2460000
0"
0c
0d
0'
#2475000
1"
1c
1d
1'
1v
0w
0x
1Q
0P
1O
1N
0M
1:
1.
0Q
1P
0N
0.
#2490000
0"
0c
0d
0'
#2505000
1"
1c
1d
1'
1x
1M
0:
1N
#2520000
0"
0c
0d
0'
#2535000
1"
1c
1d
1'
1w
0x
0O
0N
0M
1:
1Q
0P
1O
1N
1.
0Q
1P
0.
#2550000
0"
0c
0d
0'
#2565000
1"
1c
1d
1'
1x
1M
0:
0O
0N
1Q
0P
1.
#2580000
0"
0c
0d
0'
#2595000
1"
1c
1d
1'
0v
0w
0x
1u
0Q
1P
1O
1N
0M
1:
0R
0.
1R
1.
0P
0N
1S
0S
#2610000
0"
0c
0d
0'
#2625000
1"
1c
1d
1'
1x
1M
0:
1N
#2640000
0"
0c
0d
0'
#2655000
1"
1c
1d
1'
1w
0x
0O
0N
0M
1:
1P
1O
1N
0P
#2670000
0"
0c
0d
0'
#2685000
1"
1c
1d
1'
1x
1M
0:
0O
0N
1P
#2700000
0"
0c
0d
0'
#2715000
1"
1c
1d
1'
1v
0w
0x
1Q
0P
1O
1N
0M
1:
0R
0.
0Q
1P
0N
1S
1R
1.
0S
#2730000
0"
0c
0d
0'
#2745000
1"
1c
1d
1'
1x
1M
0:
1N
#2760000
0"
0c
0d
0'
#2775000
1"
1c
1d
1'
1w
0x
0O
0N
0M
1:
1Q
0P
1O
1N
0R
0.
0Q
1P
1S
1R
1.
0S
#2790000
0"
0c
0d
0'
#2805000
1"
1c
1d
1'
1x
1M
0:
0O
0N
1Q
0P
0R
0.
1S
#2820000
0"
0c
0d
0'
#2835000
1"
1c
1d
1'
1t
0v
0w
0x
0u
1T
0S
0Q
1P
1O
1N
0M
1:
1R
1.
1/
0.
0P
0N
0T
1S
0/
#2850000
0"
0c
0d
0'
#2865000
1"
1c
1d
1'
1x
1M
0:
1N
#2880000
0"
0c
0d
0'
#2895000
1"
1c
1d
1'
1w
0x
0O
0N
0M
1:
1P
1O
1N
0P
#2910000
0"
0c
0d
0'
#2925000
1"
1c
1d
1'
1x
1M
0:
0O
0N
1P
#2940000
0"
0c
0d
0'
#2955000
1"
1c
1d
1'
1v
0w
0x
1Q
0P
1O
1N
0M
1:
1.
0Q
1P
0N
0.
#2970000
0"
0c
0d
0'
#2985000
1"
1c
1d
1'
1x
1M
0:
1N
#3000000
0"
0c
0d
0'
#3015000
1"
1c
1d
1'
1w
0x
0O
0N
0M
1:
1Q
0P
1O
1N
1.
0Q
1P
0.
#3030000
0"
0c
0d
0'
#3045000
1"
1c
1d
1'
1x
1M
0:
0O
0N
1Q
0P
1.
#3060000
0"
0c
0d
0'
#3075000
1"
1c
1d
1'
0v
0w
0x
1u
0Q
1P
1O
1N
0M
1:
0R
0.
1R
1.
0P
0N
1T
0S
0T
1S
1/
0/
#3090000
0"
0c
0d
0'
#3105000
1"
1c
1d
1'
1x
1M
0:
1N
#3120000
0"
0c
0d
0'
#3135000
1"
1c
1d
1'
1w
0x
0O
0N
0M
1:
1P
1O
1N
0P
#3150000
0"
0c
0d
0'
#3165000
1"
1c
1d
1'
1x
1M
0:
0O
0N
1P
#3180000
0"
0c
0d
0'
#3195000
1"
1c
1d
1'
1v
0w
0x
1Q
0P
1O
1N
0M
1:
0R
0.
0Q
1P
0N
1T
0S
1R
1.
1/
0T
1S
0/
#3210000
0"
0c
0d
0'
#3225000
1"
1c
1d
1'
1x
1M
0:
1N
#3240000
0"
0c
0d
0'
#3255000
1"
1c
1d
1'
1w
0x
0O
0N
01
0M
1:
1Q
0P
1Z
1L
1O
1N
0R
0.
1[
0Q
1P
1T
0S
1\
1R
1.
1/
0T
1S
0/
#3270000
0"
0c
0d
0'
#3285000
1"
1c
1d
1'
1]
0t
0v
0w
0u
1^
0S
11
0P
0N
0.
0Z
0L
0[
0\
0b
1`
1g
0f
1a
18
1e
09
02
13
0%
1$
19
1[
1L
0[
0L
1\
0\
#3300000
0"
0c
0d
0'
#3315000
1"
1c
1d
1'
0z
1y
0]
1x
0^
1h
0g
1M
0:
14
1&
1N
#3330000
0"
0c
0d
0'
#3345000
1"
1c
1d
1'
1w
0x
0h
0O
0N
0M
1:
04
0&
1P
1O
1N
0P
#3360000
0"
0c
0d
0'
#3375000
1"
1c
1d
1'
1x
1M
0:
0O
0N
1P
#3390000
0"
0c
0d
0'
#3405000
1"
1c
1d
1'
1v
0w
0x
1Q
0P
1O
1N
0M
1:
1.
0Q
1P
0N
0.
#3420000
0"
0c
0d
0'
#3435000
1"
1c
1d
1'
1x
1M
0:
1N
#3450000
0"
0c
0d
0'
#3465000
1"
1c
1d
1'
1w
0x
0O
0N
0M
1:
1Q
0P
1O
1N
1.
0Q
1P
0.
#3480000
0"
0c
0d
0'
#3495000
1"
1c
1d
1'
1x
1M
0:
0O
0N
1Q
0P
1.
#3510000
0"
0c
0d
0'
#3525000
1"
1c
1d
1'
0v
0w
0x
1u
0Q
1P
1O
1N
0M
1:
0R
0.
1R
1.
0P
0N
1S
0S
#3540000
0"
0c
0d
0'
#3555000
1"
1c
1d
1'
1x
1M
0:
1N
#3570000
0"
0c
0d
0'
#3585000
1"
1c
1d
1'
1w
0x
0O
0N
0M
1:
1P
1O
1N
0P
#3600000
0"
0c
0d
0'
#3615000
1"
1c
1d
1'
1x
1M
0:
0O
0N
1P
#3630000
0"
0c
0d
0'
#3645000
1"
1c
1d
1'
1v
0w
0x
1Q
0P
1O
1N
0M
1:
0R
0.
0Q
1P
0N
1S
1R
1.
0S
#3660000
0"
0c
0d
0'
#3675000
1"
1c
1d
1'
1x
1M
0:
1N
#3690000
0"
0c
0d
0'
#3705000
1"
1c
1d
1'
1w
0x
0O
0N
0M
1:
1Q
0P
1O
1N
0R
0.
0Q
1P
1S
1R
1.
0S
#3720000
0"
0c
0d
0'
#3735000
1"
1c
1d
1'
1x
1M
0:
0O
0N
1Q
0P
0R
0.
1S
#3750000
0"
0c
0d
0'
#3765000
1"
1c
1d
1'
1t
0v
0w
0x
0u
1T
0S
0Q
1P
1O
1N
0M
1:
1R
1.
1/
0.
0P
0N
0T
1S
0/
#3780000
0"
0c
0d
0'
#3795000
1"
1c
1d
1'
1x
1M
0:
1N
#3810000
0"
0c
0d
0'
#3825000
1"
1c
1d
1'
1w
0x
0O
0N
0M
1:
1P
1O
1N
0P
#3840000
0"
0c
0d
0'
#3855000
1"
1c
1d
1'
1x
1M
0:
0O
0N
1P
#3870000
0"
0c
0d
0'
#3885000
1"
1c
1d
1'
1v
0w
0x
1Q
0P
1O
1N
0M
1:
1.
0Q
1P
0N
0.
#3900000
0"
0c
0d
0'
#3915000
1"
1c
1d
1'
1x
1M
0:
1N
#3930000
0"
0c
0d
0'
#3945000
1"
1c
1d
1'
1w
0x
0O
0N
0M
1:
1Q
0P
1O
1N
1.
0Q
1P
0.
#3960000
0"
0c
0d
0'
#3975000
1"
1c
1d
1'
1x
1M
0:
0O
0N
1Q
0P
1.
#3990000
0"
0c
0d
0'
#4005000
1"
1c
1d
1'
0v
0w
0x
1u
0Q
1P
1O
1N
0M
1:
0R
0.
1R
1.
0P
0N
1T
0S
0T
1S
1/
0/
#4020000
0"
0c
0d
0'
#4035000
1"
1c
1d
1'
1x
1M
0:
1N
#4050000
0"
0c
0d
0'
#4065000
1"
1c
1d
1'
1w
0x
0O
0N
0M
1:
1P
1O
1N
0P
#4080000
0"
0c
0d
0'
#4095000
1"
1c
1d
1'
1x
1M
0:
0O
0N
1P
#4110000
0"
0c
0d
0'
#4125000
1"
1c
1d
1'
1v
0w
0x
1Q
0P
1O
1N
0M
1:
0R
0.
0Q
1P
0N
1T
0S
1R
1.
1/
0T
1S
0/
#4140000
0"
0c
0d
0'
#4155000
1"
1c
1d
1'
1x
1M
0:
1N
#4170000
0"
0c
0d
0'
#4185000
1"
1c
1d
1'
1w
0x
0O
0N
01
0M
1:
1Q
0P
1Z
1L
1O
1N
0R
0.
1[
0Q
1P
1T
0S
1\
1R
1.
1/
0T
1S
0/
#4200000
0"
0c
0d
0'
#4215000
1"
1c
1d
1'
1]
0t
0v
0w
0u
1^
0S
11
0P
0N
0.
0Z
0L
0[
0\
1b
1g
1f
08
12
1%
09
1[
1L
1\
#4230000
0"
0c
0d
0'
#4245000
1"
1c
1d
1'
1z
1h
0g
14
1&
#4260000
0"
0c
0d
0'
#4275000
1"
1c
1d
1'
0h
04
0&
#4290000
0"
0c
0d
0'
#4305000
1"
1c
1d
1'
#4320000
0"
0c
0d
0'
#4335000
1"
1c
1d
1'
#4350000
0"
0c
0d
0'
#4365000
1"
1c
1d
1'
#4380000
0"
0c
0d
0'
#4395000
1"
1c
1d
1'
#4410000
0"
0c
0d
0'
#4425000
1"
1c
1d
1'
#4440000
0"
0c
0d
0'
#4455000
1"
1c
1d
1'
#4470000
0"
0c
0d
0'
#4485000
1"
1c
1d
1'
#4500000
0"
0c
0d
0'
#4515000
1"
1c
1d
1'
#4530000
0"
0c
0d
0'
#4545000
1"
1c
1d
1'
#4560000
0"
0c
0d
0'
#4575000
1"
1c
1d
1'
#4590000
0"
0c
0d
0'
#4605000
1"
1c
1d
1'
#4620000
0"
0c
0d
0'
#4635000
1"
1c
1d
1'
#4650000
0"
0c
0d
0'
#4665000
1"
1c
1d
1'
#4680000
0"
0c
0d
0'
#4695000
1"
1c
1d
1'
#4710000
0"
0c
0d
0'
#4725000
1"
1c
1d
1'
#4740000
0"
0c
0d
0'
#4755000
1"
1c
1d
1'
#4770000
0"
0c
0d
0'
#4785000
1"
1c
1d
1'
#4800000
0"
0c
0d
0'
#4815000
1"
1c
1d
1'
#4830000
0"
0c
0d
0'
#4845000
1"
1c
1d
1'
#4860000
0"
0c
0d
0'
#4875000
1"
1c
1d
1'
#4890000
0"
0c
0d
0'
#4905000
1"
1c
1d
1'
#4920000
0"
0c
0d
0'
#4935000
1"
1c
1d
1'
#4950000
0"
0c
0d
0'
#4965000
1"
1c
1d
1'
#4980000
0"
0c
0d
0'
#4995000
1"
1c
1d
1'
#5010000
0"
0c
0d
0'
#5025000
1"
1c
1d
1'
#5040000
0"
0c
0d
0'
#5055000
1"
1c
1d
1'
#5070000
0"
0c
0d
0'
#5085000
1"
1c
1d
1'
#5100000
0"
0c
0d
0'
#5115000
1"
1c
1d
1'
#5130000
0"
0c
0d
0'
#5145000
1"
1c
1d
1'
#5160000
0"
0c
0d
0'
#5175000
1"
1c
1d
1'
#5190000
0"
0c
0d
0'
#5205000
1"
1c
1d
1'
#5220000
0"
0c
0d
0'
#5235000
1"
1c
1d
1'
#5250000
0"
0c
0d
0'
#5265000
1"
1c
1d
1'
#5280000
b1 #
b0 #
0!
0"
07
05
06
0c
0d
0'
0a
18
#5295000
1"
1c
1d
1'
#5310000
0"
0c
0d
0'
#5325000
1"
1c
1d
1'
#5340000
0"
0c
0d
0'
#5355000
1"
1c
1d
1'
#5370000
0"
0c
0d
0'
#5385000
1"
1c
1d
1'
#5400000
0"
0c
0d
0'
#5415000
1"
1c
1d
1'
#5430000
0"
0c
0d
0'
#5445000
1"
1c
1d
1'
#5460000
0"
0c
0d
0'
#5475000
1"
1c
1d
1'
#5490000
0"
0c
0d
0'
#5505000
1"
1c
1d
1'
#5520000
0"
0c
0d
0'
#5535000
1"
1c
1d
1'
#5550000
0"
0c
0d
0'
#5565000
1"
1c
1d
1'
#5580000
0"
0c
0d
0'
#5595000
1"
1c
1d
1'
#5610000
0"
0c
0d
0'
#5625000
1"
1c
1d
1'
#5640000
0"
0c
0d
0'
#5655000
1"
1c
1d
1'
#5670000
0"
0c
0d
0'
#5685000
1"
1c
1d
1'
#5700000
0"
0c
0d
0'
#5715000
1"
1c
1d
1'
#5730000
0"
0c
0d
0'
#5745000
1"
1c
1d
1'
#5760000
0"
0c
0d
0'
#5775000
1"
1c
1d
1'
#5790000
0"
0c
0d
0'
#5805000
1"
1c
1d
1'
#5820000
0"
0c
0d
0'
#5835000
1"
1c
1d
1'
#5850000
0"
0c
0d
0'
#5865000
1"
1c
1d
1'
#5880000
0"
0c
0d
0'
#5895000
1"
1c
1d
1'
#5910000
0"
0c
0d
0'
#5920000
1!
16
1'
19
0[
0L
0\
#5925000
1"
1c
1d
0'
0]
1x
0^
1M
0:
1N
#5940000
0"
0c
0d
1'
#5955000
1"
1c
1d
0'
1w
0x
0O
0N
0M
1:
1P
1O
1N
0P
#5970000
0"
0c
0d
1'
#5985000
1"
1c
1d
0'
1x
1M
0:
0O
0N
1P
#6000000
0"
0c
0d
1'
#6015000
1"
1c
1d
0'
1v
0w
0x
1Q
0P
1O
1N
0M
1:
1.
0Q
1P
0N
0.
#6030000
0"
0c
0d
1'
#6045000
1"
1c
1d
0'
1x
1M
0:
1N
#6060000
0"
0c
0d
1'
#6075000
1"
1c
1d
0'
1w
0x
0O
0N
0M
1:
1Q
0P
1O
1N
1.
0Q
1P
0.
#6090000
0"
0c
0d
1'
#6105000
1"
1c
1d
0'
1x
1M
0:
0O
0N
1Q
0P
1.
#6120000
0"
0c
0d
1'
#6135000
1"
1c
1d
0'
0v
0w
0x
1u
0Q
1P
1O
1N
0M
1:
0R
0.
1R
1.
0P
0N
1S
0S
#6150000
0"
0c
0d
1'
#6165000
1"
1c
1d
0'
1x
1M
0:
1N
#6180000
0"
0c
0d
1'
#6195000
1"
1c
1d
0'
1w
0x
0O
0N
0M
1:
1P
1O
1N
0P
#6210000
0"
0c
0d
1'
#6225000
1"
1c
1d
0'
1x
1M
0:
0O
0N
1P
#6240000
0"
0c
0d
1'
#6255000
1"
1c
1d
0'
1v
0w
0x
1Q
0P
1O
1N
0M
1:
0R
0.
0Q
1P
0N
1S
1R
1.
0S
#6270000
0"
0c
0d
1'
#6285000
1"
1c
1d
0'
1x
1M
0:
1N
#6300000
0"
0c
0d
1'
#6315000
1"
1c
1d
0'
1w
0x
0O
0N
0M
1:
1Q
0P
1O
1N
0R
0.
0Q
1P
1S
1R
1.
0S
#6330000
0"
0c
0d
1'
#6345000
1"
1c
1d
0'
1x
1M
0:
0O
0N
1Q
0P
0R
0.
1S
#6360000
0"
0c
0d
1'
#6375000
1"
1c
1d
0'
1t
0v
0w
0x
0u
1T
0S
0Q
1P
1O
1N
0M
1:
1R
1.
1/
0.
0P
0N
0T
1S
0/
#6390000
0"
0c
0d
1'
#6405000
1"
1c
1d
0'
1x
1M
0:
1N
#6420000
0"
0c
0d
1'
#6435000
1"
1c
1d
0'
1w
0x
0O
0N
0M
1:
1P
1O
1N
0P
#6450000
0"
0c
0d
1'
#6465000
1"
1c
1d
0'
1x
1M
0:
0O
0N
1P
#6480000
0"
0c
0d
1'
#6495000
1"
1c
1d
0'
1v
0w
0x
1Q
0P
1O
1N
0M
1:
1.
0Q
1P
0N
0.
#6510000
0"
0c
0d
1'
#6525000
1"
1c
1d
0'
1x
1M
0:
1N
#6540000
0"
0c
0d
1'
#6555000
1"
1c
1d
0'
1w
0x
0O
0N
0M
1:
1Q
0P
1O
1N
1.
0Q
1P
0.
#6570000
0"
0c
0d
1'
#6585000
1"
1c
1d
0'
1x
1M
0:
0O
0N
1Q
0P
1.
#6600000
0"
0c
0d
1'
#6615000
1"
1c
1d
0'
0v
0w
0x
1u
0Q
1P
1O
1N
0M
1:
0R
0.
1R
1.
0P
0N
1T
0S
0T
1S
1/
0/
#6630000
0"
0c
0d
1'
#6645000
1"
1c
1d
0'
1x
1M
0:
1N
#6660000
0"
0c
0d
1'
#6675000
1"
1c
1d
0'
1w
0x
0O
0N
0M
1:
1P
1O
1N
0P
#6690000
0"
0c
0d
1'
